[0;1;30;40m                                                                                                                                                      [0m
[0;1;30;40m                                                                                                                                                      [0m
[0;1;30;40m                                                                                 [0;5;31;40m  [0;1;30;41m  [0;1;31;41m [0;1;30;41m [0;1;31;41m [0;5;31;40m [0;1;30;40m                                                             [0m
[0;1;30;40m                                                  [0;5;34;40m [0;5;35;40m [0;1;30;40m                         [0;5;30;40m [0;1;30;41m  [0;5;31;41m     [0;5;35;41m [0;5;33;41m  [0;5;35;40m [0;32;40m [0;1;30;40m                                                            [0m
[0;1;30;40m                                               [0;5;30;40m [0;5;35;40m   [0;1;30;45m [0;5;35;40m  [0;1;30;40m                   [0;5;30;40m [0;1;30;41m  [0;1;31;41m [0;5;31;41m  [0;5;35;41m [0;5;33;41m [0;5;35;41m [0;5;37;41m [0;5;33;41m [0;5;37;41m [0;5;33;41m [0;1;31;47m [0;5;31;41m [0;1;31;41m [0;5;31;40m [0;1;30;40m                                                            [0m
[0;1;30;40m                                             [0;5;34;40m [0;5;35;40m  [0;1;30;45m      [0;5;35;40m [0;5;34;40m [0;1;30;40m              [0;1;30;41m  [0;5;31;41m   [0;5;35;41m [0;5;33;41m [0;5;37;41m [0;5;33;41m [0;5;37;41m [0;5;35;41m [0;5;33;41m [0;5;35;41m  [0;5;33;41m [0;5;35;41m  [0;5;33;41m [0;5;35;41m [0;5;31;40m [0;1;30;40m                                                            [0m
[0;1;30;40m                                           [0;5;30;40m [0;5;35;40m  [0;1;30;45m   [0;37;45m [0;1;30;45m [0;35;47m [0;1;34;45m [0;1;30;47m [0;1;30;45m  [0;5;34;40m [0;1;30;40m           [0;1;30;41m [0;1;31;41m [0;5;31;41m  [0;5;35;41m [0;5;33;41m [0;1;31;47m [0;5;31;41m [0;5;35;41m [0;5;33;41m [0;5;35;41m [0;5;33;41m [0;1;31;47m [0;5;35;41m [0;5;37;41m [0;5;33;41m [0;1;31;47m [0;5;35;41m [0;5;37;41m [0;5;33;41m  [0;5;35;40m [0;30;41m [0;1;30;40m                                                           [0m
[0;1;30;40m                                          [0;5;35;40m  [0;1;30;45m   [0;35;47m [0;1;34;45m [0;5;37;40m [0;1;34;45m [0;1;30;47m [0;1;30;45m [0;1;34;45m [0;1;30;45m  [0;5;35;40m  [0;1;30;40m       [0;5;31;40m [0;1;30;41m [0;5;31;41m  [0;5;35;41m [0;5;37;41m [0;5;33;41m [0;5;37;41m [0;5;31;41m [0;5;35;41m [0;5;37;41m [0;5;33;41m [0;1;31;47m [0;5;35;41m  [0;5;33;41m  [0;5;35;41m [0;5;37;41m [0;5;31;41m [0;5;33;41m [0;5;35;41m [0;1;31;47m [0;5;31;41m  [0;5;36;40m [0;1;30;40m          [0;5;30;40m [0;5;31;40m [0;5;33;40m  [0;1;30;43m     [0;1;33;43m [0;1;30;43m [0;1;33;43m [0;1;30;43m [0;1;33;43m  [0;1;30;43m [0;1;33;43m [0;1;30;43m    [0;1;30;40m                            [0m
[0;1;30;40m                                        [0;5;35;40m  [0;1;30;45m   [0;35;47m [0;1;34;45m [0;5;35;40m [0;37;45m [0;1;30;45m [0;37;45m [0;1;34;45m [0;35;47m [0;1;30;45m [0;35;47m [0;1;30;45m   [0;5;34;40m [0;1;30;40m    [0;1;30;41m [0;1;31;41m [0;5;31;41m  [0;5;35;41m [0;5;37;41m [0;5;33;41m  [0;5;35;41m [0;5;33;41m [0;1;31;47m [0;5;31;41m [0;5;33;41m [0;5;35;41m [0;5;33;41m [0;5;37;41m [0;5;33;41m [0;5;37;41m [0;5;35;41m [0;5;37;41m [0;5;31;41m [0;5;35;41m [0;5;37;41m [0;5;31;41m [0;5;33;41m [0;5;35;41m [0;5;33;41m [0;5;31;40m [0;1;30;40m   [0;5;30;40m [0;5;33;40m [0;1;30;43m   [0;5;33;43m                      [0;1;33;43m [0;5;31;40m [0;1;30;40m                           [0m
[0;1;30;40m                                      [0;5;30;40m [0;5;35;40m  [0;1;30;45m  [0;35;47m [0;1;34;45m [0;5;35;40m [0;37;45m [0;1;34;45m [0;35;47m [0;1;34;45m [0;1;30;47m [0;1;30;45m  [0;37;45m [0;1;34;45m [0;35;47m [0;1;30;45m [0;37;45m [0;1;30;45m [0;5;34;40m [0;1;30;40m [0;1;30;41m  [0;5;31;41m [0;5;35;41m [0;5;33;41m [0;1;31;47m [0;5;31;41m [0;5;33;41m [0;5;37;41m [0;5;35;41m [0;1;31;47m [0;5;31;41m  [0;5;37;41m [0;5;35;41m [0;5;37;41m [0;5;31;41m [0;5;35;41m [0;5;37;41m [0;5;31;41m [0;5;33;41m [0;5;35;41m [0;5;33;41m [0;5;37;41m [0;5;31;41m [0;5;37;41m [0;5;33;41m [0;5;37;41m [0;5;31;41m [0;5;35;40m [0;5;30;40m [0;1;30;43m  [0;5;33;43m          [0;5;33;41m [0;5;33;43m   [0;5;1;31;43m [0;5;33;43m [0;5;1;31;43m [0;5;33;43m [0;5;1;31;43m [0;5;33;43m [0;5;1;31;43m [0;5;33;43m [0;5;1;31;43m [0;5;33;43m [0;5;1;31;43m [0;5;33;43m [0;5;1;31;43m [0;1;33;43m [0;5;31;40m [0;32;40m [0;1;30;40m                          [0m
[0;1;30;40m                                     [0;5;30;40m [0;5;35;40m [0;1;30;45m  [0;37;45m [0;1;34;45m [0;5;35;40m [0;37;45m [0;1;34;45m [0;35;47m [0;1;30;45m  [0;37;45m [0;1;30;45m [0;37;45m [0;1;34;45m [0;1;30;47m [0;1;30;45m [0;1;34;45m [0;1;30;47m [0;1;34;45m [0;1;30;45m [0;5;35;40m  [0;5;31;41m  [0;5;33;41m [0;5;37;41m [0;5;31;41m [0;5;33;41m [0;5;37;41m [0;5;31;41m [0;5;35;41m [0;5;33;41m [0;5;35;41m [0;5;37;41m [0;5;31;41m [0;5;33;41m [0;5;35;41m [0;5;33;41m [0;1;31;47m [0;5;31;41m [0;5;33;41m [0;5;35;41m [0;1;31;47m [0;5;33;41m [0;5;35;41m [0;5;33;41m  [0;5;35;41m [0;5;37;41m [0;5;33;41m [0;1;33;43m [0;5;33;43m [0;1;33;43m [0;5;33;43m    [0;5;1;31;43m [0;5;33;43m [0;5;1;31;43m [0;5;33;43m [0;5;33;41m [0;5;33;43m     [0;5;1;31;43m [0;5;33;43m    [0;5;1;31;43m [0;5;33;43m   [0;5;1;31;43m [0;5;33;43m   [0;5;1;31;43m [0;5;33;43m [0;1;30;43m [0;5;31;40m [0;1;30;40m                           [0m
[0;1;30;40m                  [0;5;34;40m [0;1;30;46m [0;1;36;46m [0;1;30;46m  [0;5;34;40m [0;1;30;40m            [0;5;35;40m  [0;1;30;45m  [0;37;45m [0;1;30;45m [0;35;47m [0;1;34;45m [0;35;47m [0;1;30;45m  [0;35;47m [0;1;34;45m [0;1;30;45m [0;37;45m [0;1;30;45m [0;37;45m [0;1;34;45m [0;1;30;47m [0;1;30;45m  [0;35;47m [0;1;30;45m [0;35;47m [0;1;30;45m [0;5;35;41m [0;5;37;41m [0;5;35;41m [0;5;33;41m [0;5;35;41m [0;5;37;41m [0;5;31;41m [0;5;37;41m [0;5;33;41m [0;5;37;41m [0;5;31;41m [0;5;33;41m [0;5;37;41m [0;5;35;41m [0;1;31;47m [0;5;31;41m  [0;5;37;41m [0;5;35;41m [0;5;33;41m [0;5;35;41m [0;5;37;41m [0;5;33;41m [0;33;47m [0;5;33;41m [0;5;37;43m [0;5;33;43m [0;5;33;41m [0;5;33;43m [0;5;1;31;43m [0;5;33;43m  [0;5;1;31;43m [0;5;33;43m        [0;5;33;41m [0;5;33;43m    [0;5;33;41m [0;5;33;43m  [0;5;1;31;43m [0;5;33;43m  [0;5;1;33;41m [0;5;33;43m   [0;5;1;33;41m [0;5;33;43m   [0;1;30;41m [0;1;30;40m                            [0m
[0;1;30;40m                 [0;5;30;40m [0;1;30;46m [0;5;36;46m [0;5;1;36;44m [0;5;36;46m [0;5;36;44m [0;1;36;46m [0;1;30;46m [0;5;34;40m [0;1;30;40m         [0;5;34;40m [0;5;35;40m [0;1;30;45m  [0;37;45m [0;5;35;44m [0;5;37;40m [0;1;30;45m [0;37;45m [0;1;30;45m [0;37;45m [0;1;34;45m [0;5;37;40m [0;37;45m [0;1;30;45m [0;5;35;44m [0;1;30;47m [0;1;30;45m   [0;37;45m [0;1;34;45m [0;35;47m [0;1;35;45m [0;35;47m [0;5;35;45m [0;1;30;47m [0;5;31;41m [0;5;35;41m [0;5;37;41m [0;5;33;41m [0;5;35;41m [0;5;33;41m [0;5;35;41m  [0;5;33;41m [0;5;37;41m [0;5;35;41m  [0;5;33;41m  [0;5;37;41m [0;5;31;41m [0;5;35;41m [0;5;37;41m [0;5;33;41m [0;5;37;41m [0;5;33;41m [0;5;33;43m [0;5;33;41m [0;5;33;43m [0;5;33;41m [0;5;33;43m  [0;5;33;41m [0;5;33;43m    [0;5;33;41m [0;5;33;43m  [0;5;33;41m [0;5;33;43m       [0;5;33;41m [0;5;33;43m     [0;5;1;31;43m [0;5;33;43m   [0;5;1;33;41m [0;5;33;43m   [0;5;1;33;41m [0;1;33;43m [0;5;31;40m [0;1;30;40m                            [0m
[0;1;30;40m                [0;5;30;40m [0;34;46m [0;5;36;46m [0;5;36;44m [0;5;36;46m [0;1;34;46m [0;5;36;46m [0;1;36;46m [0;5;36;46m [0;1;34;46m [0;1;30;46m [0;5;36;40m [0;34;40m [0;1;30;40m     [0;5;30;40m [0;1;30;45m   [0;35;47m [0;1;34;45m [0;1;30;47m [0;1;30;45m [0;1;34;45m [0;35;47m [0;1;30;45m  [0;35;47m [0;1;34;45m [0;1;30;45m [0;35;47m [0;1;30;45m  [0;37;45m [0;1;34;45m [0;35;47m [0;1;30;45m [0;35;47m [0;37;45m    [0;1;31;45m [0;5;37;41m [0;5;31;41m [0;5;35;41m [0;5;37;41m [0;5;33;41m [0;5;37;41m [0;5;33;41m [0;1;31;47m [0;5;31;41m [0;5;35;41m [0;5;33;41m [0;1;31;47m [0;5;31;41m [0;5;35;41m [0;5;33;41m [0;5;37;41m [0;5;33;41m  [0;33;47m [0;5;1;33;41m [0;5;33;43m [0;5;33;41m [0;5;33;43m  [0;1;33;43m [0;5;1;33;41m [0;5;33;43m [0;1;33;43m [0;5;1;31;43m [0;5;33;43m [0;5;1;33;41m [0;5;33;43m      [0;5;33;41m [0;5;33;43m   [0;5;33;41m [0;5;33;43m     [0;5;33;41m [0;5;33;43m   [0;5;1;33;41m [0;5;33;43m   [0;5;1;33;41m [0;5;33;43m  [0;31;43m [0;1;30;40m                             [0m
[0;1;30;40m               [0;5;34;40m [0;1;30;46m [0;5;36;46m [0;5;36;44m [0;5;36;46m [0;1;36;46m [0;5;1;34;46m [0;5;36;46m [0;5;36;44m [0;5;36;46m  [0;5;36;44m [0;5;36;46m [0;1;36;46m [0;1;30;46m [0;5;34;40m [0;1;30;40m  [0;5;34;40m [0;1;30;45m   [0;35;47m [0;1;34;45m [0;5;35;40m [0;1;30;45m [0;37;45m [0;1;30;45m  [0;5;37;44m [0;1;30;45m  [0;35;47m [0;1;30;45m  [0;35;47m [0;5;35;44m [0;35;47m [0;1;30;45m [0;37;45m  [0;1;35;45m [0;35;47m [0;1;35;45m [0;35;47m [0;37;45m [0;1;35;47m [0;1;31;45m [0;5;33;41m [0;5;37;41m [0;5;31;41m [0;5;35;41m [0;5;33;41m [0;5;35;41m  [0;5;37;41m [0;5;33;41m [0;5;35;41m [0;5;33;41m [0;1;31;47m [0;5;31;41m [0;5;37;41m [0;5;33;41m [0;1;33;47m [0;5;1;33;41m [0;5;1;31;43m  [0;1;33;43m [0;5;33;43m [0;5;33;41m [0;5;33;43m [0;5;1;33;41m [0;5;1;31;43m [0;5;33;41m [0;5;33;43m      [0;5;33;41m [0;5;33;43m     [0;5;1;33;41m [0;5;33;43m     [0;5;33;41m [0;5;33;43m       [0;5;33;41m [0;5;33;43m   [0;1;31;43m [0;5;31;40m [0;1;30;40m                             [0m
[0;1;30;40m               [0;1;30;46m [0;1;36;46m [0;5;1;34;46m [0;5;36;46m [0;5;36;44m [0;5;36;46m [0;5;36;44m [0;5;36;46m  [0;5;36;44m [0;5;36;46m  [0;5;36;44m [0;5;36;46m [0;1;36;46m  [0;34;46m [0;5;30;40m [0;5;35;40m [0;1;30;45m  [0;35;47m [0;1;34;45m [0;1;30;47m [0;1;30;45m [0;37;45m [0;1;34;45m [0;35;47m [0;1;30;45m [0;37;45m  [0;1;34;45m [0;5;35;40m [0;37;45m [0;5;35;44m [0;35;47m [0;1;30;45m  [0;35;47m [0;37;45m  [0;35;47m [0;1;35;45m [0;35;47m [0;1;35;45m [0;35;47m [0;37;45m [0;35;47m [0;5;35;41m  [0;5;37;41m [0;5;33;41m [0;1;31;47m [0;5;31;41m [0;5;33;41m [0;5;35;41m [0;1;31;47m [0;5;33;41m [0;5;35;41m [0;5;33;41m [0;5;37;41m [0;5;33;41m [0;5;33;43m [0;5;33;41m [0;5;33;43m [0;1;31;43m [0;5;33;43m [0;5;1;33;41m [0;5;1;31;43m [0;5;33;43m [0;5;33;41m [0;5;33;43m   [0;5;33;41m [0;5;33;43m  [0;5;1;33;41m [0;5;33;43m     [0;1;33;43m [0;5;33;43m      [0;5;33;41m [0;5;33;43m     [0;5;33;41m [0;5;33;43m      [0;1;31;43m [0;1;30;43m [0;1;30;40m                              [0m
[0;1;30;40m              [0;1;30;46m [0;5;36;46m [0;5;36;44m [0;5;36;46m [0;1;36;46m [0;5;36;46m  [0;1;36;46m [0;5;1;34;46m [0;1;36;46m [0;5;36;46m [0;5;36;44m [0;5;36;46m  [0;5;36;44m [0;5;36;46m [0;5;1;34;46m [0;1;36;46m [0;1;34;46m [0;5;35;40m [0;37;45m [0;1;34;45m [0;5;35;40m [0;37;45m [0;1;30;45m [0;1;34;45m [0;35;47m [0;1;30;45m [0;37;45m [0;1;34;45m [0;5;35;40m [0;37;45m [0;1;30;45m [0;37;45m [0;1;34;45m [0;1;30;47m [0;1;30;45m [0;37;45m [0;1;30;45m [0;37;45m [0;1;35;45m [0;35;47m [0;1;35;45m [0;35;47m [0;37;45m [0;5;37;45m [0;5;35;41m [0;35;47m [0;1;35;45m [0;5;37;41m [0;5;33;41m  [0;5;35;41m  [0;1;31;47m [0;5;31;41m [0;5;33;41m [0;5;35;41m [0;5;37;41m [0;5;33;41m [0;5;37;41m [0;5;33;43m [0;5;33;41m [0;5;33;43m  [0;5;33;41m [0;5;33;43m [0;5;33;41m [0;5;33;43m [0;5;33;41m [0;5;33;43m [0;1;33;43m [0;5;1;33;41m [0;5;33;41m [0;5;33;43m     [0;5;1;33;41m [0;5;33;43m  [0;5;33;41m [0;5;33;43m  [0;5;1;31;43m [0;5;33;43m [0;5;1;31;43m [0;5;33;43m [0;5;33;41m [0;5;33;43m         [0;5;33;41m [0;5;33;43m   [0;5;33;41m [0;1;33;43m [0;5;30;40m [0;1;30;40m                              [0m
[0;1;30;40m             [0;1;30;46m [0;1;34;46m [0;5;36;46m  [0;5;36;44m [0;5;36;46m [0;5;36;44m [0;5;36;46m [0;5;36;44m [0;5;36;46m [0;5;1;36;44m [0;5;36;46m [0;1;36;46m [0;5;1;34;46m [0;5;36;46m  [0;5;36;44m [0;5;36;46m [0;1;36;46m [0;5;36;44m [0;1;36;46m [0;1;34;46m [0;1;30;47m [0;1;34;45m [0;37;45m [0;1;30;45m [0;35;47m [0;1;30;45m [0;1;34;45m [0;1;30;47m [0;1;30;45m [0;37;45m [0;5;35;44m [0;35;47m [0;1;30;45m [0;37;45m [0;1;30;45m  [0;37;45m   [0;35;47m [0;1;35;45m [0;35;47m [0;1;35;45m [0;1;31;47m [0;37;45m [0;35;47m [0;5;35;45m [0;1;30;47m [0;5;35;41m [0;5;37;41m [0;5;35;41m [0;1;31;47m [0;5;31;41m [0;5;33;41m [0;5;37;41m [0;5;35;41m [0;5;33;41m [0;5;37;41m [0;1;33;43m [0;5;1;33;41m [0;5;33;43m [0;1;31;43m [0;5;1;31;43m [0;5;33;43m [0;1;31;43m [0;5;33;43m  [0;5;33;41m [0;5;33;43m [0;5;1;33;41m [0;5;1;31;43m [0;5;33;43m [0;1;33;43m [0;5;1;31;43m [0;5;33;43m [0;5;1;31;43m [0;5;33;43m       [0;5;1;31;43m [0;5;33;43m         [0;5;33;41m [0;5;33;43m  [0;1;33;43m [0;5;33;43m   [0;5;1;33;41m [0;5;33;43m [0;1;30;43m [0;5;32;40m [0;1;30;40m                               [0m
[0;1;30;40m            [0;5;34;40m [0;1;30;46m [0;5;36;46m [0;5;36;44m [0;5;36;46m  [0;1;34;46m [0;5;36;46m [0;1;34;46m [0;5;36;46m [0;1;36;46m [0;5;1;34;46m  [0;5;36;46m [0;5;36;44m [0;5;36;46m [0;1;34;46m [0;5;36;46m [0;5;36;44m [0;5;36;46m [0;1;30;46m [0;1;34;46m [0;1;36;46m [0;5;36;44m [0;1;30;47m [0;1;30;45m [0;37;45m [0;1;34;45m [0;1;30;47m [0;1;30;45m [0;1;34;45m [0;35;47m [0;1;30;45m [0;37;45m [0;1;30;45m [0;37;45m [0;1;34;45m [0;35;47m [0;1;34;45m [0;35;47m [0;1;35;45m [0;35;47m [0;1;35;45m [0;35;47m [0;37;45m [0;1;35;47m [0;1;31;45m [0;35;47m [0;1;35;45m [0;35;47m [0;37;45m  [0;5;31;41m [0;5;33;41m [0;5;35;41m [0;5;33;41m [0;5;35;41m [0;5;33;41m [0;1;31;47m [0;5;33;41m [0;5;33;43m [0;5;1;33;41m [0;5;1;31;43m [0;5;1;33;41m [0;5;33;43m [0;5;33;41m [0;5;33;43m [0;5;33;41m [0;5;33;43m [0;5;33;41m [0;5;33;43m [0;1;33;43m [0;5;1;31;43m  [0;5;1;33;41m [0;5;33;43m [0;5;1;31;43m [0;5;33;43m  [0;5;1;33;41m [0;5;33;43m [0;5;33;41m [0;5;33;43m   [0;5;1;31;43m [0;5;33;43m  [0;5;1;33;41m [0;5;33;43m    [0;5;33;41m [0;5;33;43m    [0;5;1;31;43m [0;5;33;43m [0;5;1;31;43m [0;5;33;43m   [0;31;43m [0;5;31;40m [0;1;30;40m                                [0m
[0;1;30;40m            [0;1;30;46m [0;1;36;46m [0;5;1;34;46m [0;5;36;46m [0;5;36;44m [0;5;36;46m [0;1;36;46m [0;5;1;34;46m [0;5;36;46m [0;5;36;44m [0;5;36;46m  [0;5;36;44m [0;5;36;46m [0;1;36;46m [0;5;1;34;46m [0;5;36;46m [0;1;34;46m [0;5;36;46m [0;1;34;46m [0;1;36;46m [0;5;1;36;44m [0;37;46m [0;1;36;46m [0;5;36;44m [0;36;47m [0;1;30;45m  [0;1;34;45m [0;35;47m [0;1;30;45m  [0;37;45m [0;1;34;45m [0;1;30;47m [0;1;30;45m   [0;35;47m [0;37;45m   [0;35;47m [0;1;35;45m [0;35;47m [0;1;31;45m [0;1;35;47m [0;37;45m [0;35;47m [0;1;31;45m [0;1;35;47m [0;5;35;41m [0;5;37;41m [0;5;35;41m [0;5;37;41m [0;5;35;41m [0;1;31;47m [0;5;31;41m [0;5;33;41m [0;5;33;43m [0;5;33;41m [0;5;33;43m [0;5;33;41m [0;5;33;43m [0;5;33;41m [0;5;33;43m [0;1;33;43m [0;5;1;31;43m  [0;5;33;43m [0;5;33;41m [0;5;33;43m [0;5;1;33;41m [0;5;33;43m [0;5;33;41m [0;5;33;43m        [0;5;33;41m [0;5;33;43m   [0;5;1;31;43m [0;5;33;43m  [0;5;33;41m [0;5;33;43m      [0;5;1;31;43m [0;5;33;43m   [0;5;1;31;43m [0;5;33;43m [0;31;43m [0;5;31;40m [0;32;40m [0;1;30;40m                                [0m
[0;1;30;40m           [0;1;30;46m [0;1;34;46m [0;5;36;46m [0;5;36;44m [0;5;36;46m  [0;5;36;44m [0;5;36;46m [0;5;36;44m [0;5;36;46m  [0;5;36;44m [0;5;36;46m [0;1;36;46m [0;5;1;34;46m [0;5;36;46m [0;5;36;44m [0;5;36;46m  [0;5;36;44m [0;1;36;46m [0;5;36;44m [0;1;36;46m [0;5;36;44m [0;1;36;46m [0;37;46m [0;5;36;44m [0;37;46m [0;37;45m [0;1;30;45m [0;37;45m [0;1;30;45m [0;1;34;47m [0;1;30;45m  [0;1;34;45m [0;35;47m [0;1;30;45m [0;35;47m [0;1;30;45m [0;5;35;45m [0;35;47m [0;1;35;45m [0;35;47m [0;5;35;45m [0;35;47m [0;37;45m  [0;1;35;45m [0;1;35;47m [0;37;45m   [0;5;31;41m [0;5;33;41m  [0;5;35;41m [0;5;33;41m [0;33;47m [0;5;1;31;43m [0;5;33;43m [0;5;33;41m [0;5;33;43m  [0;5;33;41m [0;5;33;43m [0;5;1;31;43m  [0;5;33;43m [0;5;33;41m [0;5;33;43m  [0;5;33;41m [0;5;33;43m [0;5;33;41m [0;5;33;43m   [0;5;33;41m [0;5;33;43m        [0;5;1;31;43m [0;5;33;43m       [0;5;33;41m [0;5;33;43m   [0;5;1;31;43m [0;5;33;43m [0;5;1;31;43m [0;5;33;43m [0;1;30;41m [0;5;31;40m [0;1;30;40m                                  [0m
[0;1;30;40m           [0;1;30;46m [0;5;36;46m [0;5;36;44m [0;5;36;46m [0;1;36;46m [0;5;36;46m  [0;1;34;46m [0;5;36;46m [0;1;34;46m [0;5;36;46m [0;1;36;46m [0;5;1;34;46m [0;5;36;46m [0;5;36;44m [0;5;36;46m  [0;5;36;44m [0;5;36;46m [0;1;34;46m [0;1;36;46m  [0;37;46m [0;1;36;46m [0;5;36;44m [0;1;36;46m  [0;5;36;44m [0;37;46m [0;1;30;45m [0;1;34;45m [0;35;47m [0;1;30;45m [0;37;45m  [0;1;30;45m  [0;5;35;44m [0;35;47m [0;37;45m [0;35;47m [0;37;45m [0;35;47m [0;1;31;45m [0;1;30;47m [0;1;31;45m [0;1;35;47m [0;1;31;45m [0;35;47m [0;1;31;45m [0;1;35;47m [0;1;31;45m [0;35;47m [0;5;31;41m [0;5;37;41m [0;5;35;41m [0;1;31;47m [0;5;33;41m [0;5;33;43m [0;5;33;41m [0;5;33;43m  [0;5;33;41m [0;5;33;43m  [0;5;33;41m [0;5;33;43m [0;5;33;41m [0;5;33;43m [0;1;33;43m [0;5;1;33;41m [0;5;33;43m [0;5;33;41m [0;5;33;43m       [0;5;33;41m [0;5;33;43m  [0;5;33;41m [0;5;33;43m    [0;5;1;33;41m [0;5;33;43m  [0;5;1;31;43m [0;5;33;43m [0;5;33;41m [0;5;33;43m    [0;5;1;33;41m [0;5;33;43m  [0;1;31;43m [0;1;30;43m [0;1;30;40m                                    [0m
[0;1;30;40m          [0;1;30;46m [0;1;34;46m [0;5;36;46m  [0;1;36;46m [0;5;1;34;46m [0;5;36;44m [0;5;36;46m  [0;5;36;44m [0;5;36;46m [0;5;36;44m [0;5;36;46m [0;5;36;44m [0;5;36;46m  [0;5;36;44m [0;5;36;46m [0;1;36;46m [0;5;1;34;46m [0;1;36;46m [0;5;36;44m [0;5;36;46m [0;5;36;44m [0;1;36;46m [0;37;46m [0;5;36;44m [0;1;36;46m  [0;5;36;44m [0;36;47m [0;1;30;45m  [0;37;45m [0;5;35;44m [0;5;35;40m [0;37;45m  [0;1;30;45m [0;37;45m [0;1;35;45m [0;37;45m [0;1;35;45m [0;1;35;47m [0;37;45m [0;1;35;45m [0;35;47m [0;37;45m [0;1;35;47m [0;37;45m [0;35;47m [0;37;45m [0;35;47m [0;5;35;41m  [0;5;33;41m [0;5;35;41m [0;5;33;41m [0;5;33;43m [0;5;33;41m [0;5;33;43m [0;5;33;41m [0;5;33;43m [0;1;31;43m [0;5;1;31;43m [0;1;33;43m [0;5;33;43m [0;5;33;41m [0;5;33;43m [0;5;1;33;41m [0;5;1;31;43m  [0;1;31;43m [0;5;33;43m   [0;5;33;41m [0;5;33;43m          [0;5;33;41m [0;5;33;43m   [0;5;1;33;41m [0;5;33;43m      [0;5;33;41m [0;5;33;43m  [0;31;43m [0;1;30;43m [0;31;40m [0;5;30;40m [0;1;30;40m                                   [0m
[0;1;30;40m          [0;34;46m [0;5;36;46m [0;5;36;44m [0;5;36;46m [0;5;1;36;44m [0;5;36;46m  [0;5;36;44m [0;5;36;46m  [0;1;36;46m [0;5;36;46m [0;1;36;46m [0;5;36;46m [0;5;36;44m [0;5;36;46m  [0;5;36;44m [0;5;36;46m  [0;5;36;44m [0;37;46m [0;1;34;46m [0;37;46m [0;5;36;44m [0;1;36;46m [0;37;46m [0;5;36;44m [0;1;36;46m [0;37;46m [0;5;36;44m [0;36;47m [0;1;34;45m [0;1;30;47m [0;1;30;45m [0;37;45m [0;1;34;45m [0;1;30;47m [0;1;30;45m [0;35;47m [0;37;45m  [0;35;47m [0;1;31;45m [0;1;35;47m [0;37;45m [0;1;35;45m [0;35;47m [0;1;31;45m [0;1;35;47m [0;1;31;45m [0;35;47m [0;1;35;45m [0;5;37;41m [0;5;35;41m [0;1;31;47m [0;5;33;41m [0;5;37;43m [0;1;33;43m [0;5;33;43m [0;5;1;33;41m [0;5;33;43m [0;5;33;41m [0;5;33;43m [0;5;1;31;43m   [0;5;33;43m [0;5;33;41m [0;5;33;43m [0;5;33;41m [0;5;33;43m  [0;5;33;41m [0;5;33;43m    [0;5;33;41m [0;5;33;43m   [0;5;33;41m [0;5;33;43m             [0;5;33;41m [0;5;33;43m  [0;1;30;43m  [0;1;30;41m [0;34;40m [0;5;30;40m [0;1;30;40m                                    [0m
[0;1;30;40m         [0;5;36;40m [0;1;34;46m [0;5;36;46m [0;1;34;46m [0;5;36;46m [0;5;36;44m [0;5;36;46m [0;1;34;46m [0;5;36;46m [0;5;36;44m [0;5;36;46m [0;5;36;44m [0;5;36;46m [0;5;1;36;44m [0;5;36;46m [0;1;36;46m [0;5;1;34;46m [0;5;36;46m  [0;5;36;44m [0;5;36;46m [0;1;34;46m [0;1;36;46m [0;1;34;46m [0;1;36;46m  [0;5;36;44m [0;1;36;46m [0;37;46m [0;5;36;44m [0;1;36;46m  [0;1;34;46m [0;35;47m [0;1;30;45m [0;1;34;45m [0;35;47m [0;1;30;45m [0;1;34;45m [0;35;47m [0;1;35;45m [0;35;47m [0;1;35;45m [0;1;35;47m [0;37;45m [0;1;31;45m [0;1;35;47m [0;37;45m [0;1;35;45m [0;1;35;47m [0;1;30;45m [0;1;35;47m [0;1;31;45m [0;35;47m [0;5;31;41m [0;5;35;41m [0;5;33;41m [0;5;33;43m [0;5;33;41m [0;5;33;43m [0;5;33;41m [0;5;33;43m [0;1;31;43m [0;5;33;43m [0;5;33;41m [0;5;33;43m [0;5;33;41m [0;5;33;43m [0;1;31;43m [0;5;33;43m  [0;1;33;43m [0;5;1;31;43m [0;5;33;43m        [0;5;33;41m [0;5;33;43m    [0;5;33;41m [0;5;33;43m  [0;5;1;31;43m [0;5;33;43m [0;5;33;41m [0;5;33;43m  [0;5;33;41m [0;5;33;43m    [0;1;30;43m [0;1;30;41m [0;34;40m [0;1;30;40m                                       [0m
[0;1;30;40m         [0;34;46m [0;5;36;46m [0;5;36;44m [0;5;36;46m [0;1;34;46m [0;5;36;46m [0;1;34;46m [0;5;36;46m [0;1;34;46m [0;5;36;46m [0;1;34;46m [0;5;36;46m [0;1;34;46m [0;5;36;46m [0;5;36;44m [0;5;36;46m [0;1;34;46m [0;5;36;46m [0;5;36;44m [0;5;36;46m [0;1;34;46m [0;5;36;46m [0;5;36;44m [0;1;36;46m [0;5;36;44m [0;5;36;46m [0;1;30;46m [0;5;36;44m [0;1;36;46m  [0;5;36;44m [0;1;36;46m [0;1;34;46m [0;37;46m [0;1;30;45m [0;37;45m [0;1;30;45m [0;35;47m [0;1;30;45m  [0;35;47m [0;1;35;45m [0;35;47m [0;1;31;45m [0;35;47m  [0;1;31;45m [0;1;35;47m [0;37;45m [0;1;31;45m [0;35;47m [0;37;45m [0;1;35;47m [0;5;31;41m [0;5;35;41m [0;1;31;47m [0;5;33;41m [0;5;33;43m  [0;5;33;41m [0;5;33;43m [0;5;33;41m [0;5;33;43m  [0;1;31;43m [0;5;33;43m  [0;5;33;41m [0;5;33;43m [0;5;33;41m [0;5;33;43m [0;5;1;31;43m [0;5;33;43m   [0;5;33;41m [0;5;33;43m   [0;5;33;41m [0;5;33;43m                [0;1;31;43m [0;1;30;43m [0;5;31;40m [0;1;30;40m                                          [0m
[0;1;30;40m        [0;5;30;40m [0;34;46m [0;5;36;46m [0;1;36;46m [0;5;1;34;46m [0;5;36;46m [0;5;36;44m [0;5;36;46m [0;5;36;44m [0;5;36;46m [0;1;36;46m [0;5;1;34;46m [0;5;36;46m [0;5;36;44m [0;5;36;46m  [0;5;36;44m [0;5;36;46m [0;1;34;46m [0;5;36;46m [0;1;36;46m [0;5;1;34;46m [0;1;34;46m [0;1;36;46m [0;37;46m [0;1;36;46m [0;5;36;44m [0;1;36;46m [0;37;46m [0;5;36;44m [0;1;36;46m [0;37;46m [0;5;36;44m [0;1;36;46m [0;5;36;44m [0;1;30;47m [0;1;34;45m [0;1;30;45m  [0;35;47m [0;37;45m  [0;35;47m [0;1;35;45m [0;1;35;47m [0;37;45m [0;1;35;45m [0;35;47m [0;1;31;45m [0;1;35;47m [0;37;45m [0;1;35;45m [0;35;47m [0;5;35;41m [0;35;47m [0;5;31;41m [0;5;33;41m [0;5;33;43m [0;5;33;41m [0;5;33;43m [0;1;33;43m [0;5;1;31;43m [0;5;33;43m [0;5;33;41m [0;5;33;43m [0;5;33;41m [0;5;33;43m [0;5;33;41m [0;5;33;43m  [0;1;33;43m [0;5;1;31;43m [0;5;33;43m [0;5;1;31;43m [0;5;33;43m    [0;5;33;41m [0;5;33;43m      [0;5;33;41m [0;5;33;43m  [0;5;33;41m [0;5;33;43m  [0;5;33;41m [0;5;33;43m  [0;1;31;43m [0;1;30;43m  [0;5;31;40m [0;1;30;40m                                            [0m
[0;1;30;40m        [0;5;34;40m [0;1;34;46m [0;5;36;46m [0;5;1;36;44m [0;5;36;46m [0;5;36;44m [0;5;36;46m   [0;5;36;44m [0;5;36;46m [0;5;36;44m [0;5;36;46m  [0;1;34;46m [0;5;36;46m  [0;5;36;44m [0;5;36;46m [0;5;36;44m [0;5;36;46m  [0;5;36;44m [0;1;36;46m [0;5;36;44m [0;5;36;46m [0;1;30;46m [0;5;36;44m [0;1;36;46m [0;37;46m [0;5;36;44m [0;1;36;46m [0;37;46m [0;1;34;46m [0;1;36;46m [0;5;36;44m [0;1;30;47m [0;1;30;45m [0;1;34;45m [0;37;45m [0;1;30;45m [0;5;35;45m [0;35;47m [0;37;45m [0;1;31;45m [0;1;35;47m [0;35;47m [0;1;35;45m [0;35;47m [0;37;45m [0;35;47m [0;5;35;45m [0;1;30;45m [0;5;35;41m [0;5;33;41m  [0;5;37;41m [0;5;33;43m [0;5;33;41m [0;5;33;43m [0;5;1;33;41m [0;5;1;31;43m [0;5;33;43m [0;5;33;41m [0;5;33;43m  [0;5;33;41m [0;5;33;43m [0;5;33;41m [0;5;33;43m   [0;5;1;31;43m [0;5;33;43m [0;5;1;31;43m [0;5;33;43m        [0;5;33;41m [0;5;33;43m        [0;1;33;43m [0;1;30;43m  [0;1;30;41m [0;34;40m [0;1;30;40m                                             [0m
[0;1;30;40m        [0;1;30;46m [0;1;36;46m [0;5;1;34;46m [0;5;36;46m [0;5;36;44m [0;5;36;46m [0;1;36;46m [0;5;1;36;44m [0;5;36;46m  [0;1;36;46m [0;5;36;46m [0;5;36;44m [0;5;36;46m  [0;5;36;44m [0;5;36;46m  [0;1;36;46m [0;5;36;46m [0;5;36;44m [0;5;36;46m  [0;1;34;46m [0;37;46m [0;5;36;44m [0;1;36;46m [0;37;46m [0;5;36;44m [0;1;36;46m  [0;5;36;44m [0;1;36;46m [0;1;34;46m [0;37;46m [0;1;34;46m [0;1;30;45m [0;35;47m [0;1;30;45m [0;37;45m    [0;1;35;47m [0;37;45m [0;1;31;45m [0;35;47m [0;1;35;47m [0;1;31;45m [0;1;35;47m [0;1;31;45m [0;1;30;47m [0;5;35;41m [0;35;47m [0;5;31;41m [0;5;33;41m  [0;5;33;43m [0;1;33;43m [0;5;1;33;41m [0;5;33;43m [0;5;33;41m [0;5;33;43m  [0;5;33;41m [0;5;33;43m     [0;5;1;31;43m [0;5;33;43m    [0;5;1;33;41m [0;5;33;43m    [0;5;33;41m [0;5;33;43m       [0;1;31;43m [0;5;33;43m [0;31;43m [0;1;30;43m [0;1;30;41m [0;5;31;40m [0;34;40m [0;1;30;40m                                               [0m
[0;1;30;40m        [0;34;46m [0;5;36;46m [0;5;36;44m [0;5;36;46m  [0;5;36;44m [0;5;36;46m [0;1;36;46m [0;5;1;36;44m [0;5;36;46m [0;5;36;44m [0;5;36;46m  [0;5;36;44m [0;5;36;46m [0;1;36;46m [0;5;1;34;46m  [0;5;36;46m [0;5;36;44m [0;5;36;46m [0;1;34;46m [0;5;36;46m [0;5;36;44m [0;1;36;46m [0;37;46m [0;5;36;44m [0;1;36;46m  [0;5;36;44m [0;1;36;46m [0;37;46m [0;5;36;44m [0;5;36;46m [0;1;34;46m [0;37;46m [0;5;35;44m [0;35;47m [0;1;30;45m [0;1;34;45m [0;1;30;45m [0;35;47m [0;1;35;45m [0;37;45m  [0;1;35;47m [0;1;31;45m [0;35;47m [0;37;45m  [0;35;47m [0;5;35;41m  [0;5;33;41m [0;1;31;47m [0;5;33;41m [0;5;37;43m [0;5;33;41m [0;5;33;43m [0;5;1;33;41m [0;5;33;43m [0;5;33;41m [0;5;33;43m [0;5;33;41m [0;5;33;43m  [0;5;33;41m [0;5;33;43m    [0;5;1;31;43m [0;5;33;43m [0;5;1;31;43m [0;5;33;43m  [0;5;1;31;43m [0;5;33;43m [0;5;33;41m [0;5;33;43m     [0;1;31;43m [0;1;33;43m [0;31;43m [0;1;30;43m [0;1;30;41m [0;1;30;40m [0;5;31;40m [0;1;30;40m                                                   [0m
[0;1;30;40m        [0;34;46m [0;5;36;46m [0;1;36;46m [0;5;1;36;44m [0;5;36;46m  [0;5;36;44m [0;5;36;46m [0;1;34;46m [0;5;36;46m  [0;5;36;44m [0;5;36;46m  [0;5;36;44m [0;5;36;46m [0;1;36;46m [0;5;1;34;46m [0;5;36;46m [0;1;36;46m [0;5;36;46m [0;5;36;44m [0;5;36;46m [0;1;36;46m [0;5;36;44m [0;1;36;46m  [0;5;36;44m [0;37;46m [0;1;36;46m [0;5;36;44m [0;1;36;46m [0;1;30;46m [0;1;34;46m [0;1;36;46m [0;5;36;44m [0;36;47m [0;1;30;45m [0;35;47m [0;1;30;45m [0;35;47m [0;37;45m [0;35;47m [0;1;35;45m [0;35;47m [0;1;31;45m [0;1;35;47m [0;1;30;45m [0;5;37;45m [0;1;31;45m [0;35;47m [0;5;35;41m [0;35;47m [0;5;31;41m [0;5;33;41m  [0;5;33;43m  [0;5;33;41m [0;5;33;43m [0;5;33;41m [0;5;33;43m       [0;5;1;33;41m [0;5;33;43m   [0;5;1;31;43m [0;5;33;43m       [0;1;33;43m  [0;1;31;43m [0;5;33;40m  [0;1;30;41m [0;1;30;40m    [0;34;40m [0;1;30;40m                                                   [0m
[0;1;30;40m       [0;5;30;40m [0;34;46m [0;5;1;34;46m [0;5;36;46m [0;5;36;44m [0;5;36;46m [0;1;36;46m [0;5;36;46m [0;5;1;36;44m [0;5;36;46m [0;5;36;44m [0;5;36;46m [0;1;36;46m [0;5;1;34;46m [0;5;36;46m [0;1;36;46m [0;5;1;34;46m  [0;5;36;46m [0;5;36;44m [0;5;36;46m [0;5;36;44m [0;5;36;46m   [0;1;34;46m  [0;1;36;46m  [0;5;36;44m [0;5;36;46m [0;1;30;46m [0;1;34;46m [0;5;36;46m [0;5;36;44m [0;37;46m [0;1;36;46m [0;1;34;46m [0;37;45m [0;1;30;45m [0;37;45m [0;1;30;45m [0;37;45m [0;1;35;45m [0;35;47m [0;1;35;45m [0;35;47m [0;37;45m   [0;1;31;45m [0;5;35;41m [0;5;37;41m [0;5;31;41m [0;5;33;41m [0;35;47m [0;5;33;41m [0;1;31;43m [0;1;30;43m [0;1;33;43m [0;1;30;43m   [0;31;43m [0;1;30;43m [0;33;41m [0;5;33;40m [0;31;43m [0;1;30;43m  [0;31;43m [0;1;30;43m [0;1;31;43m [0;1;30;43m  [0;31;43m [0;33;41m [0;5;31;40m [0;1;30;43m [0;1;30;41m [0;5;31;40m [0;5;33;40m [0;5;31;40m [0;5;30;40m [0;31;40m [0;1;30;40m                                                          [0m
[0;1;30;40m        [0;1;30;46m [0;5;1;34;46m [0;5;36;46m [0;1;36;46m [0;5;1;34;46m  [0;5;36;46m [0;5;36;44m [0;5;36;46m [0;1;36;46m [0;5;1;34;46m [0;5;36;46m [0;5;36;44m [0;5;36;46m [0;5;1;36;44m [0;5;36;46m [0;5;36;44m [0;5;36;46m [0;1;36;46m [0;5;36;46m  [0;5;36;44m [0;1;36;46m [0;5;1;34;46m [0;5;36;46m [0;1;34;46m  [0;5;37;46m [0;1;30;46m [0;5;36;44m [0;1;36;46m [0;1;34;46m [0;1;30;46m [0;1;34;46m  [0;1;36;46m [0;1;34;47m [0;1;30;45m [0;1;34;45m [0;35;47m [0;1;34;45m [0;35;47m [0;37;45m  [0;1;35;47m [0;1;31;45m [0;1;35;47m [0;1;31;45m [0;35;47m [0;5;35;41m [0;5;33;40m [0;1;30;41m [0;5;33;40m [0;5;31;40m  [0;5;30;40m  [0;5;31;40m   [0;1;30;40m [0;5;31;40m [0;1;30;40m     [0;31;40m [0;5;30;40m [0;5;31;40m [0;1;30;40m [0;5;30;40m [0;5;31;40m [0;31;40m [0;5;34;40m [0;1;30;40m [0;31;40m [0;1;30;40m   [0;31;40m [0;1;30;40m                                                             [0m
[0;1;30;40m       [0;5;34;40m [0;34;46m [0;5;36;46m [0;5;36;44m [0;5;36;46m [0;5;1;34;46m [0;1;36;46m [0;5;1;34;46m [0;5;36;46m [0;5;36;44m [0;5;36;46m [0;5;36;44m [0;5;36;46m  [0;5;36;44m [0;5;36;46m [0;1;34;46m [0;5;36;46m [0;5;36;44m [0;5;36;46m [0;5;36;44m [0;5;36;46m  [0;5;36;44m [0;5;36;46m [0;1;34;46m [0;5;36;46m [0;5;36;44m [0;1;34;46m [0;1;36;46m  [0;5;36;44m [0;1;36;46m [0;5;36;44m [0;5;36;46m [0;1;34;46m [0;1;36;46m [0;5;36;44m [0;1;30;47m [0;1;30;45m  [0;37;45m [0;1;30;45m  [0;37;45m [0;1;30;45m [0;5;35;40m  [0;5;31;40m [0;5;30;40m  [0;1;30;40m [0;5;30;40m [0;31;40m [0;1;30;40m [0;32;40m [0;1;30;40m  [0;34;40m [0;1;30;40m   [0;34;40m [0;1;30;40m       [0;34;40m [0;1;30;40m      [0;5;30;40m [0;1;30;40m                                                                 [0m
[0;1;30;40m        [0;34;46m [0;1;36;46m [0;5;36;46m [0;5;36;44m [0;5;36;46m [0;5;1;34;46m [0;5;36;46m [0;1;34;46m [0;5;36;46m [0;1;36;46m [0;5;36;46m [0;5;36;44m [0;5;36;46m  [0;5;36;44m [0;5;36;46m [0;1;36;46m [0;5;36;46m [0;1;34;46m [0;5;36;46m [0;5;36;44m [0;5;36;46m  [0;1;34;46m [0;5;36;46m [0;5;36;44m [0;5;36;46m [0;1;30;46m [0;5;1;36;44m [0;37;46m [0;1;36;46m [0;37;46m [0;1;36;46m [0;5;36;44m [0;36;47m [0;1;34;46m [0;36;47m [0;1;30;45m [0;37;45m [0;1;34;45m [0;5;35;40m [0;1;30;45m [0;5;35;40m  [0;5;31;40m [0;31;40m [0;1;30;40m    [0;31;40m [0;5;30;40m [0;1;30;40m                                                                                          [0m
[0;1;30;40m        [0;1;30;46m [0;5;1;34;46m [0;5;36;46m [0;1;36;46m [0;5;1;34;46m [0;5;36;46m [0;5;36;44m [0;5;36;46m [0;5;36;44m [0;5;36;46m [0;1;36;46m [0;5;36;46m [0;5;36;44m [0;5;36;46m  [0;5;36;44m [0;5;36;46m [0;5;36;44m [0;5;36;46m [0;1;36;46m [0;5;36;46m [0;5;36;44m [0;5;36;46m  [0;5;36;44m [0;5;36;46m  [0;5;36;44m [0;1;36;46m [0;5;36;44m [0;1;36;46m [0;5;36;44m [0;5;36;46m [0;1;30;46m [0;5;36;44m [0;1;36;46m [0;1;30;45m [0;1;34;45m [0;5;37;40m [0;5;35;40m  [0;1;30;44m [0;1;30;40m                                                                                                    [0m
[0;1;30;40m        [0;34;46m [0;1;36;46m [0;5;1;36;44m [0;5;36;46m [0;5;36;44m [0;5;36;46m  [0;1;36;46m [0;5;36;46m [0;5;36;44m [0;5;36;46m [0;5;36;44m [0;5;36;46m [0;1;36;46m [0;5;36;46m  [0;1;34;46m [0;5;36;46m [0;1;36;46m [0;5;1;34;46m [0;5;36;46m [0;1;36;46m [0;5;1;36;44m [0;5;36;46m [0;1;36;46m [0;5;1;34;46m [0;5;36;46m  [0;1;34;46m [0;5;36;46m [0;1;34;46m [0;37;46m [0;5;36;44m [0;1;36;46m  [0;1;34;46m [0;5;37;40m [0;5;35;40m [0;1;30;44m [0;1;30;40m [0;34;40m [0;1;30;40m                                                                                                     [0m
[0;1;30;40m        [0;5;34;40m [0;5;36;46m [0;5;36;44m [0;5;36;46m  [0;5;36;44m [0;5;36;46m [0;5;36;44m [0;5;36;46m  [0;1;36;46m [0;5;36;46m [0;5;1;34;46m  [0;5;36;44m [0;5;36;46m  [0;5;36;44m [0;5;36;46m [0;5;1;36;44m [0;5;1;34;46m [0;5;36;46m [0;5;36;44m [0;5;36;46m [0;5;1;36;44m [0;5;36;46m [0;5;36;44m [0;5;36;46m  [0;5;36;44m [0;1;36;46m [0;1;34;46m [0;1;36;46m [0;1;34;46m [0;1;30;46m [0;5;35;40m [0;1;30;44m [0;32;40m [0;1;30;40m                                                                                                        [0m
[0;1;30;40m         [0;1;34;46m [0;5;36;46m [0;1;34;46m [0;5;36;46m [0;1;36;46m [0;5;36;46m  [0;5;36;44m [0;5;36;46m [0;5;36;44m [0;5;36;46m [0;1;36;46m [0;5;36;46m  [0;5;36;44m [0;5;36;46m  [0;5;36;44m [0;5;36;46m [0;1;34;46m [0;5;36;46m [0;1;36;46m [0;5;1;34;46m [0;5;36;46m [0;5;36;44m [0;5;36;46m [0;5;36;44m [0;5;36;46m  [0;5;36;44m [0;5;36;46m [0;1;30;46m [0;5;36;40m [0;1;30;44m [0;1;30;40m                                                                                                           [0m
[0;1;30;40m        [0;5;30;40m [0;1;30;46m [0;5;36;46m [0;5;36;44m [0;5;36;46m [0;5;1;36;44m [0;5;36;44m [0;5;36;46m [0;1;36;46m [0;5;36;46m  [0;5;36;44m [0;5;36;46m [0;5;36;44m [0;5;36;46m [0;1;36;46m [0;5;1;36;44m [0;5;36;46m  [0;1;34;46m [0;5;36;46m [0;5;36;44m [0;5;36;46m [0;5;36;44m [0;5;36;46m  [0;1;36;46m [0;5;36;46m [0;5;36;44m [0;5;36;46m [0;1;36;46m [0;1;30;46m [0;1;30;44m [0;5;34;40m [0;1;30;40m                                                                                                            [0m
[0;1;30;40m         [0;1;30;44m [0;1;36;46m [0;5;36;46m [0;5;36;44m [0;5;36;46m  [0;5;36;44m [0;5;36;46m [0;5;36;44m [0;5;36;46m  [0;1;34;46m [0;5;36;46m [0;5;36;44m [0;5;36;46m [0;1;36;46m [0;5;1;36;44m [0;5;36;46m [0;5;36;44m [0;5;36;46m  [0;1;36;46m [0;5;36;46m [0;5;36;44m [0;5;36;46m [0;5;1;36;44m [0;5;36;46m [0;1;36;46m [0;5;36;44m [0;1;30;46m [0;5;30;40m [0;1;30;40m [0;31;40m [0;1;30;40m                                                                                                            [0m
[0;1;30;40m         [0;5;34;40m [0;34;46m [0;5;36;46m [0;1;36;46m [0;5;1;34;46m [0;5;36;46m  [0;1;34;46m [0;5;36;46m [0;5;36;44m [0;5;36;46m  [0;1;34;46m [0;5;36;46m [0;5;36;44m [0;5;36;46m [0;1;34;46m [0;5;36;46m  [0;5;36;44m [0;5;36;46m [0;5;36;44m [0;5;36;46m  [0;5;36;44m [0;5;36;46m [0;5;36;44m [0;5;36;46m [0;5;36;40m [0;1;30;40m                                                                                                                [0m
[0;1;30;40m          [0;34;46m [0;1;34;46m [0;5;36;46m [0;5;36;44m [0;5;36;46m [0;5;36;44m [0;5;36;46m [0;1;36;46m [0;5;36;46m [0;5;36;44m [0;5;36;46m [0;1;36;46m [0;5;36;46m  [0;5;36;44m [0;5;36;46m [0;5;36;44m [0;5;36;46m  [0;1;34;46m [0;5;36;46m [0;1;34;46m [0;5;36;46m [0;1;36;46m [0;5;36;46m [0;1;30;46m [0;5;34;40m [0;31;40m [0;1;30;40m                                                                                                                [0m
[0;1;30;40m          [0;5;34;40m [0;1;36;46m [0;5;36;46m [0;1;36;46m [0;5;36;46m  [0;5;36;44m [0;5;36;46m [0;1;34;46m [0;5;36;46m [0;5;36;44m [0;5;36;46m [0;5;36;44m [0;5;36;46m  [0;1;36;46m [0;5;36;46m [0;5;36;44m [0;5;36;46m  [0;5;36;44m [0;5;36;46m [0;5;36;44m [0;5;36;46m [0;36;44m [0;5;34;40m [0;32;40m [0;5;30;40m [0;1;30;40m                                                                                                                [0m
[0;1;30;40m           [0;34;46m [0;5;36;44m [0;5;36;46m [0;5;36;44m [0;5;36;46m  [0;5;36;44m [0;5;36;46m [0;1;36;46m [0;5;36;46m [0;1;34;46m [0;5;36;46m [0;1;34;46m [0;5;36;46m [0;5;36;44m [0;5;36;46m  [0;5;36;44m [0;5;36;46m  [0;1;36;46m [0;5;36;46m [0;5;36;44m [0;5;36;40m [0;31;40m [0;5;30;40m [0;1;30;40m                                                                                                                 [0m
[0;1;30;40m           [0;5;32;40m [0;1;30;46m [0;5;36;46m [0;1;36;46m [0;5;1;34;46m [0;5;36;46m [0;1;36;46m [0;5;1;34;46m  [0;5;36;46m [0;5;36;44m [0;5;36;46m  [0;5;36;44m [0;5;36;46m [0;1;34;46m [0;5;36;46m [0;1;36;46m [0;5;1;36;44m [0;5;36;46m [0;5;36;44m [0;5;36;46m [0;5;34;40m [0;1;30;40m                          [0;5;30;40m  [0;5;36;40m [0;5;31;40m [0;5;36;40m [0;5;33;40m  [0;5;30;40m  [0;1;30;40m          [0;5;30;40m      [0;1;30;40m       [0;5;30;40m      [0;1;30;40m     [0;5;30;40m             [0;1;30;40m                [0;5;30;40m  [0;5;36;40m [0;5;31;40m [0;5;36;40m [0;5;35;40m [0;5;32;40m [0;5;30;40m  [0;1;30;40m         [0m
[0;1;30;40m           [0;34;40m [0;5;34;40m [0;1;34;46m [0;5;36;46m [0;5;36;44m [0;5;36;46m [0;5;1;34;46m [0;5;36;46m [0;5;36;44m [0;5;36;46m  [0;5;36;44m [0;5;36;46m  [0;1;36;46m [0;5;1;34;46m  [0;5;36;46m [0;5;36;44m [0;5;36;46m  [0;36;44m [0;1;30;40m                        [0;5;30;40m [0;5;33;40m [0;1;30;47m [0;1;37;47m  [0;5;37;47m     [0;1;37;47m  [0;5;37;40m [0;5;30;40m [0;1;30;40m       [0;5;35;40m [0;1;30;47m [0;1;37;47m    [0;1;30;47m [0;5;30;40m [0;1;30;40m     [0;5;36;40m [0;1;37;47m     [0;1;30;47m [0;5;30;40m [0;1;30;40m   [0;5;30;40m [0;1;30;47m [0;1;37;47m            [0;1;30;47m  [0;5;33;40m [0;1;30;40m          [0;5;30;40m [0;5;36;40m [0;1;30;47m [0;1;37;47m  [0;5;37;47m      [0;1;37;47m [0;1;30;47m [0;5;35;40m [0;1;30;40m       [0m
[0;1;30;40m            [0;5;30;40m [0;34;46m [0;5;36;46m [0;1;36;46m [0;5;1;34;46m [0;1;36;46m [0;5;1;34;46m [0;5;36;46m [0;5;36;44m [0;5;36;46m  [0;5;36;44m [0;5;36;46m [0;5;1;36;44m [0;5;36;46m [0;5;36;44m [0;5;36;46m  [0;5;36;44m [0;1;36;46m [0;5;34;40m [0;1;30;40m                      [0;5;33;40m [0;1;30;47m [0;1;37;47m [0;5;37;47m            [0;1;37;47m [0;5;37;40m [0;5;30;40m [0;1;30;40m     [0;1;30;47m [0;5;37;47m     [0;1;30;47m [0;1;30;40m     [0;5;30;40m [0;1;37;47m [0;5;37;47m     [0;1;30;47m [0;5;30;40m [0;1;30;40m   [0;5;35;40m [0;5;37;47m                [0;1;30;47m [0;5;36;40m [0;1;30;40m      [0;5;33;40m [0;1;30;47m [0;1;37;47m [0;5;37;47m             [0;1;30;47m [0;5;30;40m [0;1;30;40m     [0m
[0;1;30;40m              [0;34;46m [0;5;36;46m [0;5;1;36;44m [0;5;36;46m [0;5;36;44m [0;5;36;46m  [0;5;36;44m [0;5;36;46m [0;1;36;46m [0;5;1;34;46m [0;5;36;46m [0;5;36;44m [0;5;36;46m [0;1;34;46m [0;5;36;46m  [0;34;46m [0;1;30;40m                     [0;5;36;40m [0;1;30;47m [0;5;37;47m     [0;1;37;47m [0;1;30;47m    [0;1;37;47m [0;5;37;47m      [0;5;37;40m [0;1;30;40m    [0;5;33;40m [0;5;37;47m     [0;1;37;47m [0;5;33;40m [0;1;30;40m     [0;5;37;40m [0;5;37;47m      [0;5;35;40m [0;1;30;40m   [0;5;30;40m [0;1;37;47m [0;5;37;47m     [0;1;37;47m      [0;5;37;47m      [0;1;30;47m [0;5;30;40m [0;1;30;40m   [0;5;30;40m [0;1;30;47m [0;5;37;47m      [0;1;30;47m [0;5;35;40m [0;5;33;40m [0;5;37;40m [0;1;30;47m [0;5;37;47m      [0;5;37;40m [0;1;30;40m     [0m
[0;1;30;40m              [0;1;30;44m [0;34;46m [0;5;36;46m [0;5;36;44m [0;5;36;46m [0;1;36;46m [0;5;36;46m [0;1;36;46m [0;5;1;34;46m [0;5;36;46m [0;5;36;44m [0;5;36;46m  [0;1;36;46m [0;5;1;34;46m [0;5;36;44m [0;5;36;46m [0;1;30;44m [0;1;30;40m                    [0;5;30;40m [0;1;30;47m [0;5;37;47m     [0;1;30;47m [0;5;30;40m [0;1;30;40m    [0;5;35;40m [0;5;37;47m      [0;5;37;40m [0;1;30;40m    [0;1;30;47m [0;5;37;47m     [0;1;30;47m [0;1;30;40m     [0;5;30;40m [0;1;37;47m [0;5;37;47m     [0;1;30;47m [0;1;30;40m    [0;5;37;40m [0;5;37;47m     [0;1;37;47m [0;5;35;40m [0;1;30;40m    [0;5;30;40m [0;1;30;47m [0;5;37;47m     [0;1;30;47m [0;1;30;40m    [0;1;30;47m [0;5;37;47m     [0;1;37;47m [0;5;35;40m [0;1;30;40m [0;5;30;40m [0;1;30;40m  [0;5;30;40m [0;1;30;47m [0;5;37;47m    [0;1;37;47m [0;5;37;40m [0;1;30;40m     [0m
[0;1;30;40m               [0;1;30;44m [0;1;30;46m [0;5;36;46m [0;1;36;46m [0;5;1;34;46m [0;5;1;36;44m [0;5;36;46m [0;5;36;44m [0;5;36;46m  [0;5;36;44m [0;5;36;46m [0;5;1;36;44m [0;5;36;46m  [0;1;34;46m [0;5;36;40m [0;1;30;40m                    [0;5;33;40m [0;5;37;47m     [0;1;37;47m [0;5;35;40m [0;32;40m [0;1;30;40m    [0;1;30;47m [0;5;37;47m     [0;1;37;47m [0;5;35;40m [0;1;30;40m   [0;5;33;40m [0;1;37;47m [0;5;37;47m     [0;5;36;40m [0;1;30;40m     [0;5;37;40m [0;5;37;47m      [0;5;35;40m [0;1;30;40m   [0;5;30;40m [0;1;37;47m [0;5;37;47m     [0;1;30;47m [0;1;30;40m     [0;5;30;40m [0;1;37;47m [0;5;37;47m     [0;5;37;40m [0;1;30;40m   [0;5;30;40m [0;1;37;47m [0;5;37;47m     [0;1;30;47m [0;5;30;40m [0;1;30;40m     [0;5;30;40m [0;5;35;40m   [0;5;33;40m [0;5;30;40m [0;1;30;40m      [0m
[0;1;30;40m                [0;1;30;44m [0;1;34;46m [0;5;36;46m [0;5;1;36;44m [0;5;36;46m [0;5;36;44m [0;5;36;46m [0;1;34;46m [0;5;36;46m [0;1;36;46m [0;5;1;34;46m [0;5;36;46m [0;5;36;44m [0;5;36;46m [0;34;46m [0;1;30;44m [0;1;30;40m                   [0;5;30;40m [0;1;37;47m [0;5;37;47m     [0;5;37;40m [0;1;30;40m     [0;5;35;40m [0;5;37;47m      [0;5;37;40m [0;1;30;40m   [0;5;30;40m [0;1;30;47m [0;5;37;47m     [0;1;30;47m [0;1;30;40m     [0;5;34;40m [0;1;37;47m [0;5;37;47m     [0;1;30;47m [0;5;30;40m [0;1;30;40m   [0;5;37;40m [0;5;37;47m     [0;1;37;47m [0;5;30;40m [0;1;30;40m     [0;5;37;40m [0;5;37;47m     [0;1;30;47m [0;5;30;40m [0;1;30;40m   [0;5;30;40m [0;1;37;47m [0;5;37;47m     [0;1;37;47m [0;5;35;40m [0;1;30;40m                 [0m
[0;1;30;40m                 [0;5;36;40m [0;1;34;46m [0;5;36;46m [0;1;34;46m [0;5;36;46m  [0;5;36;44m [0;5;36;46m [0;5;1;34;46m [0;1;36;46m [0;5;1;34;46m [0;5;36;46m [0;5;36;44m [0;1;36;46m [0;5;30;40m [0;1;30;40m                   [0;5;33;40m [0;5;37;47m     [0;1;37;47m [0;5;30;40m [0;1;30;40m     [0;1;30;47m [0;5;37;47m     [0;1;37;47m [0;5;36;40m [0;1;30;40m   [0;5;36;40m [0;5;37;47m      [0;5;36;40m [0;1;30;40m     [0;5;37;40m [0;5;37;47m      [0;5;36;40m [0;1;30;40m   [0;5;30;40m [0;1;37;47m [0;5;37;47m     [0;5;37;40m [0;1;30;40m     [0;5;32;40m [0;1;37;47m [0;5;37;47m     [0;5;35;40m [0;1;30;40m     [0;1;30;47m [0;5;37;47m       [0;5;37;40m [0;5;30;40m [0;1;30;40m               [0m
[0;1;30;40m                  [0;5;34;40m [0;1;34;46m [0;5;36;46m [0;5;36;44m [0;5;36;46m  [0;5;36;44m [0;5;36;46m [0;5;1;34;46m [0;5;36;46m [0;5;36;44m [0;5;36;46m [0;1;34;46m [0;5;36;40m [0;32;40m [0;1;30;40m                 [0;5;30;40m [0;1;30;47m [0;5;37;47m     [0;5;37;40m [0;1;30;40m     [0;5;35;40m [0;1;37;47m [0;5;37;47m     [0;1;30;47m [0;1;30;40m    [0;1;30;47m [0;5;37;47m     [0;1;30;47m [0;1;30;40m     [0;5;30;40m [0;1;37;47m [0;5;37;47m     [0;1;30;47m [0;5;30;40m [0;1;30;40m   [0;5;35;40m [0;5;37;47m      [0;5;37;40m [0;5;33;40m [0;5;36;40m [0;5;33;40m [0;5;35;40m [0;5;37;40m [0;1;37;47m [0;5;37;47m     [0;1;30;47m [0;5;30;40m [0;1;30;40m     [0;5;30;40m [0;5;37;40m [0;1;37;47m [0;5;37;47m      [0;1;37;47m [0;1;30;47m [0;5;35;40m [0;1;30;40m             [0m
[0;1;30;40m                   [0;5;34;40m [0;34;46m [0;5;36;46m [0;5;36;44m [0;5;36;46m  [0;5;36;44m [0;5;36;46m [0;1;34;46m [0;5;36;46m [0;1;36;46m [0;5;36;46m [0;30;44m [0;5;30;40m [0;1;30;40m                 [0;5;37;40m [0;5;37;47m     [0;1;37;47m [0;5;30;40m [0;1;30;40m     [0;1;30;47m [0;5;37;47m     [0;1;37;47m [0;5;31;40m [0;1;30;40m   [0;5;33;40m [0;5;37;47m     [0;1;37;47m [0;5;33;40m [0;1;30;40m     [0;5;37;40m [0;5;37;47m      [0;5;33;40m [0;1;30;40m   [0;5;35;40m [0;1;37;47m [0;5;37;47m                [0;1;30;47m [0;5;35;40m [0;1;30;40m         [0;5;30;40m [0;5;37;40m [0;1;37;47m [0;5;37;47m       [0;1;37;47m [0;5;33;40m [0;1;30;40m           [0m
[0;1;30;40m                  [0;32;40m [0;1;30;40m [0;34;40m [0;1;30;46m [0;5;36;46m [0;5;36;44m [0;5;36;46m  [0;1;34;46m [0;5;36;46m [0;5;36;44m [0;5;36;46m [0;1;34;46m [0;1;30;46m [0;1;30;40m                 [0;5;30;40m [0;1;37;47m [0;5;37;47m     [0;5;37;40m [0;1;30;40m     [0;5;33;40m [0;1;37;47m [0;5;37;47m     [0;1;30;47m [0;1;30;40m    [0;1;30;47m [0;5;37;47m     [0;1;30;47m [0;1;30;40m     [0;5;30;40m [0;1;37;47m [0;5;37;47m     [0;1;30;47m [0;1;30;40m    [0;5;37;40m [0;5;37;47m               [0;1;37;47m [0;5;35;40m [0;32;40m [0;1;30;40m            [0;5;30;40m [0;5;37;40m [0;1;37;47m [0;5;37;47m       [0;5;33;40m [0;5;30;40m [0;1;30;40m         [0m
[0;1;30;40m                    [0;5;30;40m [0;1;30;44m [0;1;30;46m [0;1;36;46m [0;5;36;46m [0;5;36;44m [0;5;36;46m [0;1;36;46m [0;5;36;46m [0;5;36;44m [0;5;36;46m [0;34;46m [0;5;30;40m [0;1;30;40m                [0;5;36;40m [0;5;37;47m     [0;1;37;47m [0;5;35;40m [0;32;40m [0;1;30;40m    [0;1;30;47m [0;5;37;47m     [0;1;37;47m [0;5;36;40m [0;1;30;40m   [0;5;36;40m [0;1;37;47m [0;5;37;47m     [0;5;35;40m [0;1;30;40m     [0;5;37;40m [0;5;37;47m      [0;5;35;40m [0;1;30;40m   [0;5;30;40m [0;1;37;47m [0;5;37;47m     [0;1;30;47m  [0;5;37;40m [0;1;30;47m [0;1;37;47m [0;5;37;47m     [0;1;37;47m [0;5;30;40m [0;1;30;40m               [0;5;35;40m [0;5;37;40m [0;5;37;47m      [0;1;37;47m [0;5;36;40m [0;1;30;40m         [0m
[0;1;30;40m                       [0;1;30;44m [0;34;46m [0;5;36;46m [0;5;36;44m [0;5;36;46m [0;1;36;46m [0;5;36;46m [0;1;34;46m [0;5;36;46m [0;1;30;44m [0;1;30;40m               [0;5;30;40m [0;1;37;47m [0;5;37;47m     [0;5;33;40m [0;1;30;40m     [0;5;35;40m [0;5;37;47m      [0;5;37;40m [0;1;30;40m    [0;1;30;47m [0;5;37;47m     [0;1;30;47m [0;1;30;40m     [0;5;35;40m [0;1;37;47m [0;5;37;47m     [0;1;30;47m [0;5;30;40m [0;1;30;40m   [0;5;37;40m [0;5;37;47m     [0;1;37;47m [0;5;30;40m [0;1;30;40m   [0;1;30;47m [0;5;37;47m     [0;1;37;47m [0;5;30;40m [0;1;30;40m    [0;5;30;40m [0;5;35;40m   [0;5;37;40m [0;5;35;40m  [0;32;40m [0;1;30;40m     [0;5;36;40m [0;1;37;47m [0;5;37;47m     [0;1;30;47m [0;1;30;40m         [0m
[0;1;30;40m                        [0;5;34;40m [0;1;30;46m [0;5;36;46m [0;5;36;44m [0;5;36;46m [0;5;1;36;44m [0;5;36;46m [0;5;36;44m [0;1;30;46m [0;5;30;40m [0;1;30;40m              [0;5;36;40m [0;5;37;47m     [0;1;37;47m [0;5;32;40m [0;1;30;40m     [0;1;30;47m [0;5;37;47m     [0;1;37;47m [0;5;33;40m [0;34;40m [0;1;30;40m  [0;5;33;40m [0;5;37;47m      [0;5;36;40m [0;1;30;40m     [0;5;37;40m [0;5;37;47m      [0;5;33;40m [0;1;30;40m   [0;5;30;40m [0;1;37;47m [0;5;37;47m     [0;5;37;40m [0;1;30;40m    [0;1;30;47m [0;5;37;47m      [0;5;35;40m [0;32;40m [0;1;30;40m   [0;1;30;47m [0;5;37;47m     [0;1;30;47m [0;5;30;40m [0;1;30;40m     [0;5;33;40m [0;1;37;47m [0;5;37;47m     [0;5;37;40m [0;1;30;40m         [0m
[0;1;30;40m                          [0;1;30;46m [0;1;36;46m [0;5;36;46m [0;5;36;44m [0;5;36;46m  [0;1;34;46m [0;1;30;46m [0;1;30;40m              [0;1;30;47m [0;5;37;47m     [0;1;37;47m [0;5;35;40m  [0;5;30;40m [0;5;32;40m [0;5;35;40m [0;1;30;47m [0;5;37;47m      [0;5;37;40m [0;1;30;40m    [0;5;37;40m [0;5;37;47m      [0;5;37;40m [0;5;31;40m [0;5;30;40m  [0;5;36;40m [0;1;30;47m [0;5;37;47m      [0;1;30;47m [0;5;30;40m [0;1;30;40m   [0;5;37;40m [0;5;37;47m     [0;1;37;47m [0;5;36;40m [0;31;40m [0;1;30;40m   [0;1;30;47m [0;5;37;47m      [0;5;36;40m [0;1;30;40m    [0;1;30;47m [0;5;37;47m     [0;1;37;47m [0;5;35;40m [0;1;30;40m  [0;5;30;40m  [0;5;36;40m [0;1;37;47m [0;5;37;47m     [0;1;30;47m [0;5;30;40m [0;1;30;40m         [0m
[0;1;30;40m                          [0;34;40m [0;5;34;40m [0;1;30;44m [0;1;36;46m [0;1;34;46m [0;5;36;46m [0;1;36;46m  [0;34;46m [0;1;30;40m             [0;5;36;40m [0;1;37;47m [0;5;37;47m               [0;1;30;47m [0;5;36;40m [0;1;30;40m     [0;5;33;40m [0;1;37;47m [0;5;37;47m               [0;1;37;47m [0;5;33;40m [0;1;30;40m    [0;5;30;40m [0;1;37;47m [0;5;37;47m     [0;5;37;40m [0;1;30;40m     [0;5;37;40m [0;5;37;47m      [0;5;37;40m [0;1;30;40m    [0;5;35;40m [0;1;37;47m [0;5;37;47m       [0;1;37;47m  [0;5;37;47m      [0;1;37;47m [0;5;33;40m [0;5;30;40m [0;1;30;40m          [0m
[0;1;30;40m                           [0;31;40m [0;5;30;40m [0;5;36;40m [0;34;46m [0;5;1;36;44m [0;5;36;46m [0;5;1;36;44m [0;1;30;46m [0;5;34;40m [0;1;30;40m             [0;5;36;40m [0;1;30;47m [0;5;37;47m           [0;1;37;47m [0;1;30;47m [0;5;36;40m [0;1;30;40m        [0;5;35;40m [0;1;30;47m [0;5;37;47m            [0;1;30;47m [0;5;33;40m [0;5;30;40m [0;1;30;40m     [0;5;37;40m [0;5;37;47m     [0;1;37;47m [0;5;30;40m [0;1;30;40m     [0;5;36;40m [0;5;37;47m      [0;5;37;40m [0;1;30;40m     [0;5;36;40m [0;1;30;47m [0;5;37;47m            [0;1;37;47m [0;5;37;40m [0;5;30;40m [0;1;30;40m            [0m
[0;1;30;40m                              [0;5;34;40m [0;5;36;40m [0;34;46m [0;5;36;46m [0;5;36;44m [0;1;36;46m [0;5;34;40m [0;32;40m [0;1;30;40m            [0;5;30;40m [0;5;35;40m [0;5;37;40m [0;1;30;47m  [0;1;37;47m   [0;1;30;47m  [0;5;37;40m [0;5;35;40m [0;5;30;40m [0;1;30;40m          [0;32;40m [0;5;30;40m [0;5;35;40m [0;5;36;40m [0;1;30;47m  [0;1;37;47m  [0;1;30;47m   [0;5;37;40m [0;5;36;40m [0;5;32;40m [0;1;30;40m        [0;5;36;40m [0;1;30;47m     [0;5;33;40m [0;1;30;40m      [0;5;30;40m [0;5;37;40m [0;1;30;47m     [0;5;35;40m [0;32;40m [0;1;30;40m     [0;5;30;40m [0;5;33;40m [0;5;37;40m [0;1;30;47m  [0;1;37;47m   [0;1;30;47m   [0;5;37;40m [0;5;35;40m [0;5;30;40m [0;1;30;40m              [0m
[0;1;30;40m                                [0;30;44m [0;5;36;40m [0;1;30;46m [0;1;36;46m  [0;5;36;40m [0;34;40m [0;1;30;40m                                                                                                               [0m
[0;1;30;40m                                  [0;5;30;40m [0;5;34;40m [0;1;30;46m [0;34;46m [0;1;30;46m [0;5;34;40m [0;1;30;40m                                                                                                              [0m
[0;1;30;40m                                    [0;34;40m [0;5;34;40m [0;1;30;46m  [0;5;34;40m [0;1;30;40m                                                                                                             [0m
[0;1;30;40m                                     [0;31;40m [0;1;30;40m  [0;5;34;40m [0;1;30;40m                                                                                                             [0m
[0;1;30;40m                                        [0;32;40m [0;1;30;40m                                                                                                             [0m
[0;1;30;40m                                                                                                                                                      [0m
[0;1;30;40m                                                                                                                                                      [0m
[0;1;30;40m                                                                                                                                                      [0m
[0;1;30;40m                                                                                                                                                      [0m
[0;1;30;40m                                                                                                                                                      [0m
[0;34;40m                    [0;31;40m [0;32;40m [0;34;40m [0;31;40m [0;32;40m   [0;31;40m           [0;34;40m              [0;32;40m [0;31;40m                    [0;34;40m        [0;32;40m      [0;31;40m                   [0;32;40m     [0;34;40m          [0;31;40m            [0;34;40m [0;32;40m              [0;34;40m  [0m
[0;34;40m                  [0;32;40m [0;5;36;40m [0;5;37;47m  [0;1;30;47m [0;31;40m [0;32;40m [0;34;40m [0;31;40m [0;32;40m [0;34;40m [0;31;40m [0;32;40m [0;34;40m [0;31;40m [0;32;40m  [0;31;40m   [0;34;40m             [0;32;40m   [0;31;40m  [0;34;40m  [0;31;40m  [0;34;40m [0;31;40m          [0;34;40m            [0;32;40m    [0;5;30;40m [0;5;35;40m [0;5;30;40m [0;32;40m [0;31;40m [0;34;40m  [0;31;40m   [0;5;30;40m [0;5;35;40m [0;5;30;40m [0;1;30;40m [0;32;40m      [0;34;40m  [0;32;40m  [0;34;40m         [0;31;40m [0;34;40m  [0;31;40m  [0;5;30;40m [0;1;30;40m [0;34;40m   [0;31;40m  [0;34;40m   [0;32;40m [0;34;40m [0;32;40m [0;34;40m [0;31;40m [0;32;40m [0;34;40m [0;31;40m [0;32;40m     [0;34;40m  [0m
[0;34;40m                 [0;32;40m  [0;5;37;40m [0;5;37;47m   [0;1;37;47m         [0;5;36;40m [0;32;40m  [0;31;40m   [0;34;40m       [0;1;30;40m [0;1;30;47m [0;1;37;47m                      [0;5;35;40m [0;32;40m      [0;34;40m          [0;1;30;40m [0;1;37;47m [0;5;37;47m [0;1;37;47m [0;1;30;40m [0;34;40m    [0;31;40m  [0;1;37;47m [0;5;37;47m  [0;5;30;40m [0;32;40m     [0;34;40m         [0;1;30;40m  [0;5;30;40m  [0;5;33;40m [0;5;37;40m [0;1;30;47m  [0;1;37;47m [0;5;37;47m  [0;1;37;47m [0;1;30;40m [0;34;40m       [0;32;40m [0;34;40m [0;5;30;40m [0;5;37;47m  [0;1;30;47m [0;31;40m [0;34;40m [0;32;40m     [0;34;40m  [0m
[0;34;40m       [0;32;40m [0;31;40m [0;34;40m [0;32;40m [0;31;40m [0;34;40m [0;32;40m [0;31;40m [0;34;40m [0;32;40m [0;31;40m [0;34;40m [0;5;37;40m [0;5;37;47m  [0;1;30;47m [0;5;36;40m [0;5;35;40m [0;5;33;40m       [0;5;30;40m [0;32;40m [0;34;40m [0;31;40m [0;32;40m [0;34;40m [0;31;40m  [0;34;40m     [0;1;30;40m [0;5;37;47m   [0;5;36;40m    [0;5;35;40m  [0;5;37;40m [0;1;37;47m [0;5;37;47m  [0;5;37;40m [0;5;36;40m      [0;1;37;47m [0;5;37;47m  [0;5;36;40m [0;32;40m       [0;34;40m         [0;1;30;40m [0;5;37;47m  [0;1;37;47m [0;32;40m [0;34;40m [0;31;40m [0;34;40m   [0;32;40m [0;1;37;47m [0;5;37;47m  [0;5;30;40m [0;32;40m        [0;34;40m    [0;32;40m [0;5;33;40m [0;5;37;47m        [0;1;30;47m  [0;5;36;40m  [0;1;30;40m [0;34;40m        [0;31;40m [0;5;30;40m [0;5;37;47m  [0;1;30;47m [0;34;40m [0;32;40m      [0;34;40m  [0m
[0;34;40m     [0;32;40m [0;1;30;47m [0;5;37;47m                             [0;1;37;47m [0;31;40m [0;34;40m [0;32;40m [0;34;40m     [0;1;30;40m [0;5;37;47m  [0;1;37;47m [0;34;40m [0;32;40m [0;31;40m [0;34;40m [0;32;40m [0;31;40m [0;34;40m [0;1;37;47m [0;5;37;47m  [0;1;30;40m [0;32;40m [0;34;40m [0;31;40m [0;32;40m [0;34;40m [0;31;40m [0;1;30;47m [0;5;37;47m  [0;5;33;40m [0;32;40m        [0;5;30;40m [0;1;30;47m        [0;5;37;47m   [0;1;30;47m       [0;5;37;47m   [0;1;30;47m        [0;5;36;40m [0;32;40m [0;34;40m [0;31;40m  [0;34;40m  [0;5;37;40m  [0;5;33;40m [0;5;30;40m  [0;5;37;47m  [0;1;37;47m [0;34;40m [0;32;40m [0;34;40m [0;31;40m [0;32;40m [0;34;40m   [0;5;33;40m [0;34;40m [0;31;40m [0;32;40m [0;31;40m  [0;5;30;40m [0;5;37;47m  [0;1;30;47m [0;32;40m [0;31;40m [0;34;40m  [0;32;40m  [0;34;40m   [0m
[0;34;40m    [0;31;40m  [0;1;30;47m [0;5;37;47m  [0;1;37;47m [0;1;30;47m                       [0;1;37;47m [0;5;37;47m  [0;1;37;47m [0;1;30;40m [0;32;40m [0;34;40m      [0;1;30;40m [0;5;37;47m  [0;1;37;47m [0;1;30;40m [0;31;40m [0;1;30;40m [0;32;40m [0;1;30;40m [0;34;40m [0;1;30;40m [0;1;37;47m [0;5;37;47m  [0;5;30;40m [0;31;40m [0;1;30;40m [0;32;40m [0;1;30;40m [0;31;40m [0;1;30;40m [0;1;30;47m [0;5;37;47m  [0;5;36;40m [0;32;40m        [0;5;36;40m [0;5;37;47m       ;                     [0;1;37;47m [0;31;40m [0;34;40m [0;32;40m [0;31;40m   [0;32;40m [0;31;40m   [0;1;30;40m [0;5;37;47m  [0;1;37;47m [0;31;40m [0;32;40m [0;31;40m [0;34;40m [0;32;40m [0;34;40m [0;31;40m [0;1;30;47m [0;5;37;47m  [0;1;30;47m [0;5;36;40m [0;1;30;40m [0;31;40m [0;5;30;40m [0;5;37;47m  [0;1;30;47m [0;34;40m [0;31;40m [0;32;40m    [0;34;40m   [0m
[0;34;40m      [0;1;30;47m [0;5;37;47m  [0;5;36;40m [0;31;40m [0;5;35;40m [0;1;37;47m                   [0;1;30;47m [0;31;40m [0;1;30;40m [0;1;37;47m [0;5;37;47m [0;1;37;47m [0;34;40m [0;32;40m [0;31;40m  [0;34;40m    [0;1;30;40m [0;5;37;47m                       [0;5;36;40m [0;32;40m [0;31;40m [0;32;40m      [0;31;40m [0;1;30;40m       [0;5;30;40m [0;5;37;47m  [0;1;37;47m [0;1;30;40m       [0;1;37;47m [0;5;37;47m  [0;5;30;40m [0;1;30;40m       [0;34;40m [0;32;40m [0;31;40m [0;32;40m   [0;5;33;40m [0;5;35;40m [0;5;37;40m   [0;1;30;47m [0;5;37;47m   [0;1;30;47m [0;5;37;40m    [0;5;30;40m [0;32;40m [0;5;35;40m [0;1;30;47m [0;1;37;47m [0;5;37;47m  [0;5;37;40m [0;32;40m [0;5;30;40m [0;5;37;47m  [0;1;30;47m [0;31;40m [0;32;40m [0;34;40m       [0m
[0;34;40m    [0;32;40m  [0;1;30;47m [0;5;37;47m [0;1;37;47m [0;5;30;40m [0;31;40m [0;32;40m [0;5;35;40m [0;5;37;40m  [0;5;33;40m [0;5;34;40m [0;5;33;40m [0;5;34;40m [0;5;33;40m [0;1;30;47m   [0;5;36;40m  [0;5;33;40m [0;5;34;40m [0;5;33;40m [0;5;37;40m [0;5;35;40m  [0;5;30;40m [0;32;40m [0;34;40m [0;5;37;40m [0;1;30;47m [0;5;33;40m [0;32;40m [0;31;40m [0;34;40m [0;31;40m    [0;34;40m [0;1;30;40m [0;5;37;47m  [0;1;37;47m [0;5;36;40m [0;5;35;40m [0;5;32;40m [0;5;35;40m [0;5;32;40m [0;5;35;40m [0;5;32;40m [0;1;37;47m [0;5;37;47m  [0;5;36;40m  [0;5;31;40m [0;5;36;40m [0;5;31;40m [0;5;36;40m [0;5;30;40m [0;1;30;47m [0;5;37;47m  [0;5;36;40m [0;34;40m  [0;31;40m [0;32;40m   [0;31;40m [0;34;40m [0;32;40m [0;34;40m [0;32;40m   [0;34;40m   [0;1;30;40m [0;5;37;47m  [0;1;37;47m [0;31;40m [0;34;40m [0;32;40m  [0;34;40m   [0;1;37;47m [0;5;37;47m  [0;1;30;40m [0;32;40m       [0;31;40m [0;32;40m [0;34;40m [0;32;40m [0;31;40m [0;34;40m [0;1;30;47m [0;5;37;47m             [0;5;37;40m [0;34;40m [0;32;40m   [0;5;37;40m  [0;34;40m [0;31;40m [0;5;30;40m [0;5;37;47m  [0;1;30;47m [0;32;40m [0;34;40m [0;31;40m [0;34;40m      [0m
[0;34;40m   [0;32;40m [0;31;40m   [0;1;30;40m [0;31;40m [0;1;30;40m [0;5;30;40m [0;5;37;40m [0;1;37;47m [0;5;37;47m  [0;5;37;40m [0;1;30;40m [0;34;40m [0;5;33;40m [0;5;37;47m    [0;1;30;47m [0;1;30;40m [0;34;40m [0;31;40m [0;5;37;40m [0;5;37;47m  [0;1;37;47m [0;1;30;47m [0;5;33;40m [0;1;30;40m [0;32;40m [0;31;40m  [0;34;40m [0;31;40m [0;32;40m  [0;31;40m  [0;34;40m  [0;1;30;40m [0;5;37;47m  [0;1;37;47m [0;32;40m  [0;34;40m [0;32;40m [0;31;40m [0;32;40m [0;31;40m [0;1;37;47m [0;5;37;47m  [0;1;30;40m [0;31;40m [0;34;40m   [0;31;40m  [0;5;37;40m [0;5;37;47m  [0;5;36;40m [0;34;40m [0;31;40m      [0;32;40m [0;34;40m [0;32;40m        [0;5;37;40m [0;1;30;47m [0;5;36;40m [0;32;40m [0;5;35;40m [0;1;30;40m [0;32;40m [0;34;40m [0;32;40m  [0;5;35;40m [0;5;37;40m [0;5;33;40m [0;1;30;40m [0;32;40m        [0;31;40m    [0;34;40m [0;5;30;40m [0;5;35;40m    [0;1;30;47m [0;5;37;47m   [0;5;36;40m     [0;5;30;40m [0;34;40m [0;32;40m [0;34;40m  [0;31;40m  [0;32;40m [0;34;40m [0;5;30;40m [0;5;37;47m  [0;1;30;47m [0;34;40m [0;31;40m [0;32;40m   [0;34;40m    [0m
[0;34;40m   [0;31;40m  [0;34;40m  [0;5;30;40m [0;1;37;47m [0;5;37;47m  [0;1;37;47m [0;1;30;47m [0;5;33;40m [0;34;40m [0;5;33;40m [0;1;30;47m [0;5;37;47m   [0;1;30;47m [0;5;33;40m [0;1;30;47m [0;5;37;47m  [0;1;37;47m [0;1;30;47m [0;5;36;40m [0;1;30;40m [0;5;35;40m [0;1;30;47m [0;1;37;47m [0;5;37;47m  [0;1;37;47m [0;5;30;40m [0;34;40m [0;32;40m      [0;34;40m  [0;1;30;40m [0;5;37;47m  [0;1;37;47m [0;5;33;40m [0;5;34;40m [0;5;33;40m [0;5;30;40m [0;5;35;40m [0;5;32;40m [0;5;35;40m [0;1;37;47m [0;5;37;47m  [0;5;33;40m [0;5;35;40m [0;5;32;40m [0;5;35;40m [0;5;30;40m [0;5;33;40m [0;5;34;40m [0;1;30;47m [0;5;37;47m  [0;5;33;40m [0;31;40m [0;32;40m     [0;34;40m    [0;32;40m   [0;34;40m [0;32;40m [0;34;40m  [0;31;40m [0;34;40m [0;31;40m [0;1;30;47m [0;5;37;47m  [0;1;37;47m [0;5;36;40m [0;31;40m  [0;32;40m  [0;31;40m [0;32;40m [0;34;40m  [0;32;40m      [0;31;40m    [0;34;40m   [0;31;40m [0;34;40m [0;32;40m [0;1;30;47m [0;5;37;47m  [0;1;37;47m [0;5;36;40m [0;31;40m [0;34;40m [0;32;40m [0;34;40m [0;31;40m [0;5;30;40m [0;1;37;47m [0;1;30;47m [0;5;35;40m [0;32;40m [0;34;40m [0;31;40m [0;34;40m [0;5;30;40m [0;5;37;47m  [0;1;30;47m [0;31;40m [0;32;40m [0;34;40m       [0m
[0;34;40m     [0;32;40m   [0;5;37;40m [0;1;30;47m [0;5;36;40m [0;31;40m [0;34;40m [0;5;36;40m [0;1;37;47m [0;5;37;47m   [0;1;30;47m [0;5;30;40m [0;32;40m  [0;31;40m [0;1;30;40m [0;1;30;47m [0;5;37;47m    [0;1;30;47m [0;5;30;40m [0;34;40m [0;5;30;40m [0;5;33;40m [0;5;30;40m [0;32;40m        [0;34;40m  [0;1;30;40m [0;5;37;47m                       [0;5;33;40m [0;32;40m [0;34;40m [0;32;40m   [0;34;40m          [0;31;40m   [0;32;40m [0;34;40m [0;32;40m [0;1;30;47m [0;5;37;47m   [0;5;37;40m [0;31;40m [0;32;40m [0;34;40m  [0;31;40m [0;34;40m  [0;32;40m       [0;31;40m     [0;32;40m  [0;31;40m [0;5;37;40m [0;5;37;47m     [0;1;30;47m [0;5;30;40m [0;31;40m [0;34;40m  [0;1;37;47m [0;5;37;47m    [0;5;33;40m [0;31;40m [0;34;40m [0;5;30;40m [0;5;37;47m  [0;1;30;47m [0;32;40m [0;34;40m [0;31;40m [0;34;40m      [0m
[0;34;40m    [0;32;40m  [0;34;40m  [0;32;40m [0;5;30;40m [0;5;35;40m [0;1;30;47m [0;1;37;47m [0;5;37;47m  [0;1;37;47m [0;1;30;47m [0;5;30;40m [0;32;40m [0;31;40m [0;34;40m [0;32;40m [0;31;40m [0;34;40m [0;32;40m [0;5;30;40m [0;5;35;40m [0;1;37;47m [0;5;37;47m   [0;1;37;47m [0;1;30;47m [0;5;37;40m [0;5;33;40m [0;34;40m [0;32;40m [0;31;40m [0;34;40m       [0;1;30;40m [0;5;37;47m  [0;1;37;47m [0;5;33;40m [0;5;35;40m [0;5;36;40m  [0;5;35;40m [0;5;36;40m [0;5;33;40m [0;5;36;40m [0;5;33;40m   [0;5;35;40m [0;5;33;40m [0;5;36;40m [0;5;33;40m [0;5;36;40m [0;5;33;40m [0;1;30;47m [0;5;37;47m  [0;5;33;40m [0;34;40m           [0;5;30;40m [0;5;36;40m [0;1;30;40m [0;31;40m [0;34;40m [0;5;30;40m [0;1;37;47m  [0;1;30;47m [0;34;40m [0;31;40m [0;5;36;40m [0;5;37;47m   [0;1;30;47m [0;1;30;40m [0;32;40m   [0;5;35;40m [0;1;30;47m  [0;1;30;40m [0;32;40m     [0;31;40m      [0;34;40m [0;5;35;40m [0;5;37;47m     [0;1;37;47m [0;5;37;47m  [0;1;37;47m [0;5;33;40m [0;32;40m [0;1;30;40m [0;5;33;40m [0;1;37;47m [0;5;37;47m  [0;1;30;47m [0;32;40m [0;34;40m [0;5;30;40m [0;5;37;47m  [0;1;30;47m [0;34;40m [0;31;40m [0;32;40m   [0;34;40m    [0m
[0;34;40m    [0;32;40m [0;5;35;40m [0;1;30;47m [0;1;37;47m [0;5;37;47m       [0;1;37;47m              [0;5;37;47m        [0;1;30;47m [0;1;30;40m [0;34;40m      [0;31;40m [0;1;30;40m   [0;32;40m [0;1;30;40m  [0;31;40m [0;32;40m [0;34;40m [0;5;35;40m [0;1;37;47m  [0;5;33;40m [0;32;40m [0;31;40m   [0;34;40m [0;31;40m [0;34;40m [0;31;40m  [0;32;40m [0;34;40m [0;31;40m    [0;34;40m       [0;1;37;47m [0;5;37;47m  [0;5;36;40m [0;32;40m [0;5;30;40m [0;5;37;47m  [0;1;30;47m [0;32;40m [0;34;40m [0;32;40m [0;1;30;40m [0;1;30;47m [0;1;37;47m [0;1;30;47m [0;1;30;40m [0;32;40m [0;31;40m [0;32;40m [0;5;37;40m [0;5;37;47m   [0;5;36;40m [0;32;40m [0;34;40m [0;31;40m       [0;1;30;40m [0;1;37;47m [0;5;37;47m  [0;1;30;47m [0;5;37;47m  [0;1;37;47m [0;31;40m [0;5;36;40m [0;1;30;47m [0;5;37;47m [0;1;30;47m [0;31;40m [0;34;40m [0;32;40m [0;31;40m [0;1;30;40m [0;5;30;40m [0;34;40m [0;31;40m [0;32;40m [0;5;30;40m [0;5;37;47m  [0;1;30;47m [0;31;40m [0;32;40m [0;5;30;40m  [0;34;40m [0;31;40m    [0m
[0;34;40m     [0;1;30;47m [0;5;37;47m   [0;1;30;47m [0;5;37;40m [0;5;37;47m  [0;1;30;47m [0;31;40m [0;34;40m [0;32;40m [0;31;40m [0;34;40m [0;32;40m [0;31;40m [0;34;40m [0;32;40m [0;31;40m [0;34;40m [0;31;40m [0;34;40m [0;31;40m [0;32;40m [0;5;37;40m [0;5;37;47m  [0;5;37;40m [0;5;30;40m [0;5;37;40m [0;1;37;47m [0;5;37;47m [0;5;35;40m [0;34;40m [0;31;40m [0;32;40m    [0;34;40m [0;32;40m [0;34;40m [0;31;40m  [0;1;30;40m [0;1;37;47m [0;5;37;47m [0;1;37;47m [0;1;30;40m [0;34;40m [0;5;33;40m [0;5;37;47m   [0;5;35;40m [0;31;40m [0;34;40m [0;32;40m  [0;34;40m  [0;5;33;40m [0;5;37;40m [0;1;30;40m [0;34;40m [0;31;40m  [0;34;40m       [0;32;40m [0;5;30;40m [0;5;37;47m   [0;1;30;40m [0;34;40m [0;5;30;40m [0;5;37;47m  [0;1;30;47m [0;31;40m [0;32;40m [0;34;40m [0;31;40m  [0;32;40m [0;34;40m [0;31;40m    [0;32;40m [0;5;37;40m [0;5;37;47m   [0;5;35;40m [0;34;40m [0;31;40m      [0;5;30;40m [0;1;37;47m [0;5;37;47m  [0;1;30;47m [0;1;30;40m [0;5;37;47m  [0;1;37;47m [0;34;40m [0;31;40m  [0;5;36;40m [0;34;40m [0;32;40m [0;31;40m [0;34;40m [0;31;40m    [0;32;40m [0;1;30;40m [0;5;35;40m [0;5;37;47m   [0;1;37;47m [0;5;37;47m   [0;5;30;40m [0;31;40m    [0m
[0;34;40m   [0;31;40m  [0;1;30;40m [0;5;33;40m [0;1;30;40m [0;34;40m [0;31;40m [0;5;30;40m [0;5;37;47m   [0;1;37;47m [0;1;30;47m              [0;1;37;47m [0;5;37;47m  [0;5;35;40m [0;31;40m [0;34;40m [0;31;40m [0;1;30;40m [0;34;40m [0;32;40m [0;31;40m [0;32;40m    [0;5;30;40m [0;1;37;47m  [0;1;30;47m [0;1;30;40m  [0;5;37;47m  [0;1;37;47m [0;34;40m [0;32;40m [0;31;40m [0;5;36;40m [0;5;37;47m   [0;5;36;40m [0;32;40m [0;34;40m [0;31;40m  [0;5;35;40m [0;5;37;47m  [0;1;37;47m [0;5;35;40m [0;32;40m      [0;34;40m  [0;32;40m [0;31;40m [0;5;37;40m [0;5;37;47m  [0;1;30;47m [0;31;40m [0;34;40m [0;5;30;40m [0;5;37;47m  [0;1;30;47m [0;34;40m [0;31;40m [0;32;40m  [0;34;40m  [0;31;40m [0;32;40m [0;31;40m [0;34;40m    [0;5;37;40m [0;5;37;47m   [0;5;35;40m [0;32;40m   [0;31;40m  [0;5;35;40m [0;5;37;47m   [0;5;37;40m [0;31;40m [0;1;30;40m [0;5;37;47m  [0;1;37;47m [0;32;40m [0;31;40m [0;34;40m [0;32;40m [0;5;30;40m [0;5;35;40m [0;5;33;40m [0;5;36;40m [0;1;30;47m  [0;1;37;47m  [0;5;37;47m        [0;1;37;47m  [0;5;30;40m [0;31;40m    [0m
[0;34;40m  [0;31;40m [0;32;40m  [0;34;40m   [0;31;40m [0;32;40m [0;5;30;40m [0;5;37;47m  [0;1;37;47m [0;5;30;40m               [0;1;30;47m [0;5;37;47m  [0;5;37;40m [0;34;40m  [0;32;40m [0;34;40m [0;31;40m [0;32;40m [0;31;40m   [0;32;40m [0;34;40m [0;1;37;47m [0;5;37;47m  [0;5;37;40m [0;31;40m [0;5;30;40m [0;5;37;47m  [0;1;37;47m [0;32;40m [0;34;40m [0;32;40m [0;34;40m [0;5;33;40m [0;5;37;47m [0;1;37;47m [0;5;37;40m [0;34;40m [0;31;40m [0;32;40m  [0;34;40m [0;5;33;40m [0;1;37;47m [0;5;37;47m  [0;1;30;47m [0;32;40m [0;34;40m [0;31;40m      [0;1;30;40m [0;5;37;47m   [0;5;33;40m [0;34;40m  [0;5;30;40m [0;5;37;47m  [0;1;30;47m [0;32;40m [0;34;40m [0;31;40m    [0;32;40m  [0;34;40m  [0;5;33;40m [0;5;37;40m [0;5;33;40m [0;34;40m [0;5;33;40m [0;5;37;47m   [0;5;33;40m [0;32;40m [0;34;40m  [0;32;40m  [0;5;35;40m [0;1;30;47m [0;5;30;40m [0;34;40m  [0;1;30;40m [0;5;37;47m  [0;1;37;47m [0;31;40m [0;34;40m [0;32;40m [0;31;40m [0;1;30;47m [0;5;37;47m    [0;1;37;47m  [0;1;30;47m  [0;5;36;40m [0;1;30;47m [0;5;37;47m  [0;1;30;47m [0;34;40m [0;31;40m [0;34;40m [0;32;40m [0;31;40m     [0m
[0;34;40m [0;31;40m [0;32;40m   [0;34;40m  [0;32;40m  [0;31;40m [0;5;30;40m [0;5;37;47m  [0;1;37;47m [0;1;30;47m  [0;5;37;40m [0;1;30;47m [0;5;37;40m [0;1;30;47m  [0;5;37;40m [0;1;30;47m [0;5;37;40m [0;1;30;47m  [0;5;37;40m [0;1;30;47m [0;5;37;40m [0;1;37;47m [0;5;37;47m  [0;5;35;40m [0;32;40m [0;34;40m [0;31;40m [0;32;40m  [0;31;40m     [0;5;33;40m [0;5;37;47m   [0;1;30;40m [0;31;40m [0;1;30;40m [0;5;37;47m  [0;1;37;47m [0;31;40m [0;34;40m [0;31;40m [0;32;40m [0;31;40m [0;1;30;40m [0;34;40m [0;32;40m [0;31;40m [0;32;40m [0;5;35;40m [0;5;33;40m [0;5;30;40m [0;34;40m [0;5;30;40m [0;5;37;47m   [0;1;37;47m [0;31;40m [0;34;40m [0;32;40m     [0;1;30;47m [0;5;37;47m  [0;1;37;47m [0;34;40m   [0;5;30;40m [0;5;37;47m  [0;1;30;47m [0;31;40m [0;34;40m [0;31;40m     [0;32;40m  [0;5;30;40m [0;5;37;47m   [0;5;36;40m [0;31;40m [0;1;30;47m [0;5;37;47m   [0;5;30;40m [0;31;40m      [0;34;40m [0;32;40m  [0;1;30;40m [0;5;37;47m  [0;1;37;47m [0;34;40m [0;32;40m [0;31;40m [0;34;40m [0;5;36;40m [0;5;37;40m [0;5;33;40m [0;1;30;40m  [0;34;40m    [0;32;40m [0;5;30;40m [0;5;37;47m  [0;1;30;47m [0;32;40m [0;34;40m [0;32;40m [0;31;40m      [0m
[0;34;40m  [0;32;40m  [0;34;40m    [0;31;40m  [0;5;30;40m [0;5;37;47m   [0;1;30;47m               [0;1;37;47m [0;5;37;47m  [0;5;37;40m [0;31;40m [0;34;40m [0;31;40m      [0;32;40m [0;5;30;40m [0;5;37;47m   [0;5;33;40m [0;31;40m [0;34;40m [0;5;30;40m [0;5;37;47m  [0;1;37;47m [0;34;40m [0;32;40m [0;31;40m  [0;34;40m [0;32;40m [0;31;40m  [0;32;40m [0;31;40m [0;1;37;47m [0;5;37;47m  [0;5;33;40m [0;34;40m [0;5;34;40m [0;1;37;47m [0;5;37;47m  [0;1;37;47m [0;1;30;40m [0;32;40m    [0;5;33;40m [0;5;37;47m   [0;5;35;40m [0;32;40m  [0;34;40m [0;5;30;40m [0;5;37;47m  [0;1;30;47m [0;34;40m [0;32;40m [0;31;40m       [0;1;30;47m [0;5;37;47m  [0;1;30;47m [0;31;40m  [0;1;30;40m [0;1;37;47m  [0;1;30;47m [0;1;30;40m [0;31;40m      [0;34;40m [0;32;40m  [0;1;30;40m [0;1;37;47m [0;5;37;47m [0;1;37;47m [0;32;40m [0;31;40m [0;34;40m [0;31;40m   [0;34;40m     [0;32;40m [0;31;40m  [0;5;30;40m [0;5;37;47m  [0;1;30;47m [0;31;40m [0;34;40m [0;31;40m       [0m
[0;34;40m        [0;31;40m  [0;5;30;40m [0;5;37;47m  [0;1;37;47m [0;5;36;40m      [0;5;35;40m    [0;5;33;40m     [0;1;30;47m [0;5;37;47m  [0;5;35;40m [0;34;40m [0;31;40m [0;32;40m   [0;31;40m   [0;32;40m [0;1;37;47m [0;5;37;47m  [0;1;30;47m [0;32;40m [0;34;40m [0;32;40m [0;1;30;40m [0;5;37;47m   [0;1;30;47m [0;5;37;40m  [0;1;30;47m [0;5;37;40m  [0;1;30;47m [0;5;37;40m [0;1;30;47m  [0;5;37;47m   [0;1;30;40m [0;34;40m [0;32;40m [0;1;30;40m [0;1;37;47m  [0;5;36;40m [0;1;30;40m [0;32;40m   [0;34;40m [0;5;30;40m [0;5;37;40m [0;1;30;47m [0;5;36;40m [0;32;40m    [0;5;30;40m [0;5;37;47m   [0;1;37;47m         [0;5;37;47m  [0;1;37;47m [0;5;30;40m [0;31;40m    [0;32;40m [0;34;40m [0;31;40m        [0;32;40m  [0;1;30;40m [0;5;37;47m  [0;1;37;47m [0;31;40m [0;34;40m [0;32;40m [0;31;40m   [0;34;40m     [0;32;40m [0;31;40m  [0;5;30;40m [0;5;37;47m  [0;1;30;47m [0;34;40m [0;32;40m [0;31;40m       [0m
[0;34;40m        [0;31;40m  [0;5;30;40m [0;5;37;47m                     [0;5;37;40m [0;32;40m [0;31;40m [0;32;40m   [0;31;40m   [0;34;40m [0;31;40m [0;5;36;40m [0;1;30;47m [0;31;40m [0;34;40m [0;31;40m [0;32;40m  [0;1;30;47m [0;5;37;47m              [0;1;30;47m [0;34;40m [0;32;40m    [0;31;40m [0;32;40m [0;34;40m [0;32;40m   [0;34;40m    [0;32;40m      [0;1;30;47m [0;5;37;47m   ;;;;;;;; [0;1;37;47m [0;5;30;40m [0;34;40m [0;31;40m  [0;32;40m [0;34;40m  [0;31;40m       [0;34;40m  [0;32;40m  [0;1;30;40m [0;5;37;47m  [0;1;37;47m [0;34;40m [0;32;40m [0;31;40m    [0;34;40m     [0;32;40m [0;31;40m  [0;5;30;40m [0;5;37;47m  [0;1;30;47m [0;32;40m [0;31;40m        [0m
[0;34;40m          [0;5;30;40m [0;1;37;47m [0;5;37;47m [0;1;30;47m [0;1;30;40m [0;32;40m [0;34;40m [0;31;40m [0;32;40m [0;34;40m [0;31;40m [0;32;40m [0;34;40m [0;31;40m [0;32;40m [0;34;40m [0;31;40m [0;32;40m [0;34;40m [0;5;33;40m [0;1;37;47m  [0;5;33;40m [0;34;40m    [0;31;40m  [0;34;40m    [0;32;40m [0;34;40m [0;32;40m   [0;31;40m  [0;34;40m [0;5;33;40m [0;5;35;40m [0;5;36;40m [0;5;33;40m [0;5;35;40m [0;5;33;40m     [0;5;36;40m  [0;5;33;40m [0;5;30;40m [0;34;40m [0;32;40m [0;31;40m    [0;34;40m    [0;32;40m  [0;34;40m     [0;32;40m   [0;34;40m  [0;31;40m [0;1;30;40m            [0;32;40m [0;34;40m [0;31;40m   [0;32;40m  [0;31;40m       [0;34;40m    [0;32;40m [0;1;30;40m [0;1;30;47m [0;1;37;47m [0;1;30;47m [0;32;40m [0;31;40m [0;34;40m  [0;31;40m  [0;34;40m      [0;31;40m  [0;1;30;40m [0;1;30;47m [0;1;37;47m [0;5;37;40m [0;31;40m [0;34;40m [0;31;40m       [0m
[0;34;40m            [0;31;40m [0;32;40m [0;34;40m [0;31;40m [0;32;40m [0;34;40m [0;31;40m [0;32;40m [0;34;40m [0;31;40m [0;32;40m [0;34;40m [0;31;40m [0;32;40m [0;34;40m [0;31;40m [0;32;40m [0;31;40m [0;32;40m [0;34;40m           [0;31;40m   [0;34;40m  [0;31;40m [0;34;40m [0;31;40m [0;32;40m [0;34;40m [0;32;40m  [0;34;40m [0;32;40m       [0;31;40m [0;34;40m  [0;31;40m [0;32;40m [0;31;40m   [0;32;40m [0;34;40m           [0;32;40m   [0;31;40m  [0;34;40m    [0;32;40m [0;31;40m   [0;32;40m [0;34;40m  [0;32;40m [0;31;40m [0;34;40m [0;31;40m [0;32;40m [0;31;40m  [0;32;40m   [0;31;40m     [0;34;40m     [0;32;40m    [0;31;40m [0;34;40m     [0;31;40m [0;34;40m        [0;31;40m   [0;34;40m  [0;32;40m [0;31;40m      [0;34;40m [0m
[0;34;40m          [0;31;40m [0;32;40m [0;34;40m [0;31;40m [0;34;40m  [0;31;40m [0;32;40m [0;34;40m [0;31;40m [0;32;40m [0;34;40m [0;31;40m [0;32;40m [0;34;40m [0;31;40m [0;32;40m [0;34;40m [0;31;40m [0;34;40m [0;32;40m [0;34;40m           [0;31;40m   [0;34;40m    [0;32;40m [0;34;40m    [0;32;40m        [0;34;40m  [0;32;40m       [0;34;40m           [0;32;40m   [0;31;40m  [0;34;40m     [0;31;40m [0;32;40m [0;34;40m   [0;31;40m [0;32;40m          [0;31;40m    [0;34;40m       [0;32;40m    [0;31;40m [0;34;40m            [0;31;40m [0;34;40m     [0;31;40m       [0;34;40m [0m
