/home/mwong/Xilinx_Answer_65444_Linux_Files_rel20180420/xdma/xdma.ko
/home/mwong/Xilinx_Answer_65444_Linux_Files_rel20180420/xdma/libxdma.o /home/mwong/Xilinx_Answer_65444_Linux_Files_rel20180420/xdma/xdma_cdev.o /home/mwong/Xilinx_Answer_65444_Linux_Files_rel20180420/xdma/cdev_ctrl.o /home/mwong/Xilinx_Answer_65444_Linux_Files_rel20180420/xdma/cdev_events.o /home/mwong/Xilinx_Answer_65444_Linux_Files_rel20180420/xdma/cdev_sgdma.o /home/mwong/Xilinx_Answer_65444_Linux_Files_rel20180420/xdma/cdev_xvc.o /home/mwong/Xilinx_Answer_65444_Linux_Files_rel20180420/xdma/cdev_bypass.o /home/mwong/Xilinx_Answer_65444_Linux_Files_rel20180420/xdma/xdma_mod.o

